[
  {
    "original": "Fire Form",
    "data": {
      "name": "Ohnivá forma",
      "data.description.value": "<p>{tvor} se umí pohnout otvorem širokým aspoň 1 coul, aniž by se protlačoval. Tvor, který se dotkne {tvor} nebo ho zasáhne útokem na blízko ze vzdálenosti do 1 sáhu, utrpí ohnivé zranění 5 (1k10). Navíc {tvor} může vstoupit na místo nepřátelského tvora a zastavit se tam. Když vstoupí na místo tvora poprvé v tahu, tento tvor utrpí ohnivé zranění 5 (1k10) a začne hořet; dokud někdo neprovede akci k uhašení plamene, tvor utrpí ohnivé zranění 5 (1k10) na začátku každého svého tahu.</p>"
    }
  },
  {
    "original": "Blinding Spittle",
    "data": {
      "name": "Oslepující plivanec (obnovení 5 – 6)",
      "data.description.value": "<p>{tvor} plivne kapku chemikálie do bodu, který vidí do 3 sáhů od sebe. Kapka při dopadu vybuchne oslnivým zábleskem světa. Každý tvor do 1 sáhu od záblesku musí uspět v záchranném hodu na Obratnost se SO 13, jinak oslepne do konce {tvor} přštího tahu.</p>"
    }
  },
  {
    "original": "Gnome Cunning",
    "data": {
      "name": "Gnómská prohnanost",
      "data.description.value": "<p>{tvor} má výhodu k záchranným hodům na Inteligenci, Moudrost a Charisma proti magii.</p>"
    }
  },
  {
    "original": "Damage Transfer",
    "data": {
      "name": "Přenos zranění",
      "data.description.value": "<p>Zatímco je {tvor} přisátý k tvorovi, obdržuje pouze polovinu utrpěného zranění (zaokrouhleno dolů) a druhou polovinu obdržuje tvor, ke kterému je přisátý.</p>"
    }
  },
  {
    "original": "Corrode Metal",
    "data": {
      "name": "Rezivění kovu",
      "data.description.value": "<p>Každá nemagická zbraň z kovu, která zasáhne {tvor}}, zkoroduje. Po způsobení zranění zbraň utrpí kumulativní postih –1 k hodům na zranění. Naroste-li postih na –5, zbraň se zničí. Nemagické střelivo z kovu, které zasáhne {tvor}}, se po způsobení zranění zničí.</p><p>{tvor} se umí prožrat skrz 2 couly tlustý nemagický kov během 1 kola.</p>"
    }
  },
  {
    "original": "Brave",
    "data": {
      "name": "Statečný",
      "data.description.value": "<p>{tvor} má výhodu k záchranným hodům proti vystrašení.</p>"
    }
  },
  {
    "original": "Create Whirlwind",
    "data": {
      "name": "Stvoř vzdušný vír",
      "data.description.value": "<p>V bodě, který {tvor} vidí do 24 sáhů od sebe, se magicky utvoří válec vířícího vzduchu s poloměrem 1 sáh a výškou 6 sáhů. Vzdušný vír vydrží, dokud neskončí {tvor} soustředění (jako by se soustředil na kouzlo). Každý tvor kromě {tvor}}, který vstoupí do vzdušného víru, musí uspět v záchranném hodu na Sílu se SO 18, jinak ho vír zadrží. {tvor} může pohnout vzdušným vírem až 12 sáhů jako akci a tvorové zadržení vzdušným vírem se pohnou s ním. Vzdušný vír skončí, ztratí-li ho {tvor} z výhledu.</p><p>Tvor může použít svou akci k osvobození tvora zadrženého vzdušným vírem, včetně sebe, pomocí úspěšného ověření Síly se SO 18. Pokud ověření uspěje, tvor přestane být zadržený a pohne se na nejbližší místo mimo vzdušný vír.</p>"
    }
  },
  {
    "original": "Labyrinthine Recall",
    "data": {
      "name": "Paměť na labyrinty",
      "data.description.value": "<p>{tvor} si umí perfektně vzpomenout na jakoukoli trasu, kterou už dřív prošel.</p>"
    }
  },
  {
    "original": "Light Sensitivity",
    "data": {
      "name": "Citlivost na světlo",
      "data.description.value": "<p>Když je {tvor} v jasném světle, má nevýhodu k hodům na útok a ověřením Moudrosti (Vnímání) opírajícími se o zrak.</p>"
    }
  },
  {
    "original": "Ethereal Jaunt",
    "data": {
      "name": "Éterická procházka",
      "data.description.value": "<p>Jako bonusovou akci se {tvor} může magicky přesunout z Materiální sféry do Éterické sféry, a naopak.</p>"
    }
  },
  {
    "original": "Amorphous",
    "data": {
      "name": "Beztvarý",
      "data.description.value": "<p>{tvor} se umí pohnout otvorem širokým aspoň 1 coul, aniž by se protlačoval.</p>"
    }
  },
  {
    "original": "Tunneler",
    "data": {
      "name": "Tunelář",
      "data.description.value": "<p>{tvor} se umí prohrabávat pevnou skálou svou poloviční rychlostí hrabání a zanechávat za sebou tunel o průměru 2 sáhy.</p>"
    }
  },
  {
    "original": "Sleep Breath",
    "data": {
      "name": "Uspávací dech",
      "data.description.value": "<p>{tvor} vydechne uspávací plyn v kuželu 18 sáhů. Každý tvor v této oblasti musí uspět v záchranném hodu na Odolnost se SO 18, jinak upadne do bezvědomí na 10 minut. Tento účinek pro tvora skončí, utrpí-li zranění, nebo provede-li někdo jiný akci, kterou ho vzbudí.</p>"
    }
  },
  {
    "original": "Amphibious",
    "data": {
      "name": "Obojživelník",
      "data.description.value": "<p>{tvor} může dýchat vzduch a vodu.</p>"
    }
  },
  {
    "original": "Steadfast",
    "data": {
      "name": "Neochvějný",
      "data.description.value": "<p>{tvor} nelze vystrašit, když vidí svého spojence do 6 sáhů od něj.</p>"
    }
  },
  {
    "original": "Steam Breath",
    "data": {
      "name": "Parní dech (obnovení 6)",
      "data.description.value": "<p>{tvor} vydechne horkou páru v kuželu 3 sáhy. Každý tvor v oblasti si musí hodit záchranný hod na Obratnost se SO 10. Když tvor neuspěje, utrpí ohnivé zranění 4 (1k8), nebo poloviční zranění při úspěšném záchranném hodu.</p>"
    }
  },
  {
    "original": "Reckless",
    "data": {
      "name": "Bezhlavost",
      "data.description.value": "<p>Na začátku svého tahu může {tvor} získat výhodu ke všem hodům na útok na blízko zbraní, které provede během tohoto tahu, ale hody na útok proti němu budou mít výhodu až do začátku jeho příštího tahu.</p>"
    }
  },
  {
    "original": "Speak with Beasts and Plants",
    "data": {
      "name": "Mluvení se zvířaty a rostlinami",
      "data.description.value": "<p>{tvor} může komunikovat se zvířaty a rostlinami, jako by měli společný jazyk.</p>"
    }
  },
  {
    "original": "Surprise Attack",
    "data": {
      "name": "Překvapivý útok",
      "data.description.value": "<p>Pokud {tvor} překvapí tvora a zasáhne ho útokem během prvního kola boje, cíl utrpí z útoku dodatečné zranění 7 (2k6).</p>"
    }
  },
  {
    "original": "Searing Burst",
    "data": {
      "name": "Spalující výbuch (stojí 2 akce)",
      "data.description.value": "<p>{tvor} vypustí magickou, božskou energii. Každý tvor dle jeho volby v okruhu 2 sáhy si musí hodit záchranný hod na Obratnost se SO 23. Když tvor neuspěje, utrpí ohnivé zranění 14 (4k6) plus zářivé zranění 14 (4k6), nebo poloviční zranění při úspěšném záchranném hodu.</p>"
    }
  },
  {
    "original": "Water Susceptibility",
    "data": {
      "name": "Náchylnost na vodu",
      "data.description.value": "<p>Za každý sáh, co se {tvor} pohne ve vodě, nebo za každý na něj vychrstnutý galon vody, utrpí chladné zranění 1.</p>"
    }
  },
  {
    "original": "Chomp",
    "data": {
      "name": "Žvýkání (stojí 2 akce)",
      "data.description.value": "<p>{tvor} zaútočí jednou kousnutím, nebo použije Spolknutí.</p>"
    }
  },
  {
    "original": "Antennae",
    "data": {
      "name": "Tykadla",
      "data.description.value": "<p>{tvor} zkoroduje železný předmět, který vidí do 1 sáhu od sebe. Pokud předmět nikdo nedrží ani nenese, dotyk zničí 1 stopu krychlovou z něj. Pokud předmět někdo drží nebo nese, tak daný tvor si hodí záchranný hod na Obratnost se SO 11, aby se vyhnul dotyku {tvora}.</p><p>Je-li dotčeným předmětem kovová zbroj či kovový štít, který někdo drží nebo nese, tak utrpí trvalý a kumulativní postih –1 k OČ, které poskytuje. Zbroj, jejíž OČ se sníží na 10, nebo štít, jehož bonus klesne na +0, se zničí. Je-li dotčeným předmětem kovová zbraň, tak zrezaví, jak je popsáno v rysu Rezivění kovu.</p>"
    }
  },
  {
    "original": "Animate Chains",
    "data": {
      "name": "Oživení řetězů (obnovení po krátkém či důkladném odpočinku)",
      "data.description.value": "<p>Na až čtyřech řetězech, které nikdo nedrží ani nenese a které {tvor} vidí do 12 sáhů od sebe, magicky vyraší ostny ostré jako břitva a řetězy ožijí pod {tvor} kontrolou.</p><p>Každý oživlý řetěz je předmět s OČ 20, 20 životy, odoláním vůči bodnému poškození a imunitou vůči hromovému a psychickému poškození. Když {tvor} použije ve svém tahu Vícenásobný útok, může použít každý oživlý řetěz k jednomu dodatečnému útoku řetězem. Oživlý řetěz může uchvátit jednoho tvora sám, ale během uchvacování nemůže útočit. Oživlý řetěz se navrátí do svého neživého stavu, pokud mu klesnou životy na 0, nebo pokud se {tvor} stane neschopný či zemře.</p>"
    }
  },
  {
    "original": "Cast a Spell",
    "data": {
      "name": "Seslání kouzla (stojí 3 akce)",
      "data.description.value": "<p>{tvor} sešle kouzlo ze svého seznamu připravených kouzel, přičemž použije pozici kouzla jako normálně.</p>"
    }
  },
  {
    "original": "Aggressive",
    "data": {
      "name": "Agresivita",
      "data.description.value": "<p>Jako bonusovou akci se {tvor} může pohnout až svou rychlostí k nepřátelskému tvorovi, kterého vidí.</p>"
    }
  },
  {
    "original": "Flyby",
    "data": {
      "name": "Oblet",
      "data.description.value": "<p>{tvor} nevyvolává příležitostné útoky, když odletí z dosahu nepřítele.</p>"
    }
  },
  {
    "original": "Blind Senses",
    "data": {
      "name": "Oslepené smysly",
      "data.description.value": "<p>Když je {tvor} hluchý a nemůže čichat, nemůže používat své mimozrakové vnímání.</p>"
    }
  },
  {
    "original": "Blinding Gaze",
    "data": {
      "name": "Oslepující pohled (stojí 3 akce)",
      "data.description.value": "<p>{tvor} zacílí jednoho tvora, kterého vidí do 6 sáhů od sebe. Pokud cíl {tvor} vidí, musí uspět v záchranném hodu na Odolnost se SO 15, jinak oslepne, dokud mu slepotu nesejme magie jako například kouzlo <em>nižší navrácení</em>.</p>"
    }
  },
  {
    "original": "Relentless",
    "data": {
      "name": "Neúprosnost (obnovení po krátkém či důkladném odpočinku)",
      "data.description.value": "<p>Pokud {tvor} utrpí zranění 10 či méně, které sníží jeho životy na 0, sníží se jeho životy místo toho na 1.</p>"
    }
  },
  {
    "original": "Adhesive",
    "data": {
      "name": "Přilnavý (jen v podobě předmětu)",
      "data.description.value": "<p>{tvor} přilne k čemukoliv, čeho se dotkne. Obrovský či menší tvor, který přilne k {tvor}}, je jím také uchvácený (SO úniku je 13). Ověření vlastností pro únik z tohoto uchvácení mají nevýhodu.</p>"
    }
  },
  {
    "original": "Shimmering Shield",
    "data": {
      "name": "Třpytivý štít (stojí 2 akce)",
      "data.description.value": "<p>{tvor} vytvoří třpytivé, magické pole kolem sebe nebo jiného tvora, kterého vidí do 12 sáhů od sebe. Cíl získá bonus +2 k OČ do konce jednorožcova příštího tahu.</p>"
    }
  },
  {
    "original": "Unarmed Strike (Legendary)",
    "data": {
      "name": "Úder beze zbraně",
      "data.description.value": "<p>Úder, kop, hlavička nebo podobný silný úder (žádný z nich se nepočítá jako zbraň). Při zásahu úder způsobí drtivé zranění rovné 1 + modifikátoru síly. Na úder beze zbraně je tvor zdatný</p>"
    }
  },
  {
    "original": "Sneak Attack",
    "data": {
      "name": "Zákeřný útok (1/tah)",
      "data.description.value": "<p>{tvor} způsobí dodatečné zranění 13 (4k6) cíli, kterého zasáhne útokem zbraní, pokud má k hodu na útok výhodu, nebo pokud nemá nevýhodu k hodu na útok a do 1 sáhu od cíle je jiný cílův nepřítel, který není neschopný.</p>"
    }
  },
  {
    "original": "Water Form",
    "data": {
      "name": "Vodní forma",
      "data.description.value": "<p>{tvor} může vstoupit na místo nepřátelského tvora a zastavit se tam. Umí se pohnout otvorem širokým aspoň 1 coul, aniž by se protlačoval.</p>"
    }
  },
  {
    "original": "Turn Immunity",
    "data": {
      "name": "Imunita vůči odvracení",
      "data.description.value": "<p>{tvor} je imunní vůči schopnostem, které odvrací nemrtvé.</p>"
    }
  },
  {
    "original": "Regeneration",
    "data": {
      "name": "Regenerace",
      "data.description.value": "<p>{tvor} si obnoví 10 životů na začátku svého tahu, má-li aspoň 1 život.</p>"
    }
  },
  {
    "original": "Blood Frenzy",
    "data": {
      "name": "Krvavé šílenství",
      "data.description.value": "<p>{tvor} má výhodu k hodům na útok na blízko proti jakémukoli tvorovi, který nemá všechny životy.</p>"
    }
  },
  {
    "original": "Stone Golem - Slow",
    "data": {
      "name": "Kamenný Golem - Zpomalení",
      "data.description.value": "<p>{tvor} zacílí jednoho nebo více tvorů, které vidí do 2 sáhů od něj. Každý cíl si musí hodit záchranný hod na Moudrost se SO 17 proti této magii. Když cíl neuspěje, nemůže používat reakce, jeho rychlost klesne na polovinu a ve svém tahu nemůže provést víc než jeden útok. Navíc cíl může ve svém tahu provést buď akci, nebo bonusovou akci, ne obojí. Tyto účinky trvají 1 minutu. Cíl může zopakovat záchranný hod na konci každého svého tahu a při úspěchu pro něj účinek skončí.</p>"
    }
  },
  {
    "original": "Paralyzing Breath",
    "data": {
      "name": "Oslabující dech",
      "data.description.value": "<p>{tvor} vydechne plyn v kuželu 3 sáhy. Každý tvor v této oblasti musí uspět v záchranném hodu na Sílu se SO 13, jinak na 1 minutu utrpí nevýhodu k hodům na útok založených na Síle, ověřením Síly a záchranným hodům na Sílu. Tvor může zopakovat záchranný hod na konci každého svého tahu a při úspěchu pro něj účinek skončí.</p>"
    }
  },
  {
    "original": "Rampage",
    "data": {
      "name": "Běsnění",
      "data.description.value": "<p>Když {tvor} ve svém tahu sníží životy tvora na 0 útokem na blízko, může se jako bonusovou akci pohnout až poloviční rychlostí a zaútočit kousnutím.</p>"
    }
  },
  {
    "original": "Rock Catching",
    "data": {
      "name": "Chytání balvanů",
      "data.description.value": "<p>Letí-li na obra balvan či podobný předmět a obr uspěje v záchranném hodu na Obratnost se SO 10, může ho chytit a neutrpí z něj žádné drtivé zranění.</p>"
    }
  },
  {
    "original": "Ooze Cube",
    "data": {
      "name": "Slizká krychle",
      "data.description.value": "<p>{tvor} zabírá celé své místo. Ostatní tvorové mohou vejít na její místo, ale ten, kdo to udělá, je vystaven jejímu Pohlcení a má nevýhodu k záchrannému hodu.</p><p>Tvory uvnitř {tvor} je vidět, ale mají úplný kryt. Tvor do 1 sáhu od {tvor} z ní může jako akci vytáhnout tvora nebo předmět. To vyžaduje úspěšné ověření Síly se SO 12 a tvor, který se o to pokouší, utrpí kyselinové zranění 10 (3k6).</p><p>{tvor} může mít v sobě najednou buď jednoho Velkého tvora, nebo až čtyři Střední či menší tvory.</p>"
    }
  },
  {
    "original": "Claw Attack",
    "data": {
      "name": "Útok drápy",
      "data.description.value": "<p>{tvor} zaútočí jednou drápy.</p>"
    }
  },
  {
    "original": "Faultless Tracker",
    "data": {
      "name": "Bezvadný stopař",
      "data.description.value": "<p>Přivolávač zadá {tvor} kořist. {tvor} zná směr a vzdálenost ke kořisti, pokud je ve stejné sféře existence jako {tvor}. {tvor} zná i polohu svého přivolávače.</p>"
    }
  },
  {
    "original": "Ambusher",
    "data": {
      "name": "Útočník ze zálohy",
      "data.description.value": "<p>V prvním kole boje má {tvor} výhodu k hodům na útok proti jakémukoliv tvorovi, kterého překvapil.</p>"
    }
  },
  {
    "original": "Disrupt Life",
    "data": {
      "name": "Poškoď život (stojí 3 akce)",
      "data.description.value": "<p>Každý tvor, který není nemrtvý a je do 4 sáhů od {tvor}}, si musí hodit záchranný hod na Odolnost se SO 18 proti této magii. Když tvor neuspěje, utrpí nekrotické zranění 21 (6k6), nebo poloviční zranění při úspěšném záchranném hodu.</p>"
    }
  },
  {
    "original": "Engulf",
    "data": {
      "name": "Pohlcení",
      "data.description.value": "<p>{tvor} pohltí Středního či menšího tvora, kterého uchvacuje. Pohlcený cíl je slepý, zadržený a nemůže dýchat a musí uspět v záchranném hodu na Odolnost se SO 14 na začátku každého tahu {tvor}}, jinak utrpí drtivé zranění 13 (2k8 + 4). Když se {tvor} pohne, pohlcený cíl se pohne s ním. {tvor} může mít pohlceného jen jednoho tvora najednou.</p>"
    }
  },
  {
    "original": "Death Throes",
    "data": {
      "name": "Smrtelná agónie",
      "data.description.value": "<p>Když {tvor} zemře, vybuchne a každý tvor do 6 sáhů od něj si musí hodit záchranný hod na Obratnost se SO 20. Když tvor neuspěje, utrpí ohnivé zranění 70 (20k6), nebo poloviční zranění při úspěšném záchranném hodu. Výbuch zapaluje v oblasti hořlavé předměty, které nikdo nedrží ani nenese, a zničí {tvor} zbraně.</p>"
    }
  },
  {
    "original": "Treasure Sense",
    "data": {
      "name": "Vnímání pokladů",
      "data.description.value": "<p>{tvor} umí čichem přesně určit polohu vzácných kovů a kamenů, například mincí a drahokamů, do 12 sáhů od sebe.</p>"
    }
  },
  {
    "original": "Multiattack",
    "data": {
      "name": "Vícenásobný útok",
      "data.description.value": "<p>{tvor} zaútočí dvakrát na blízko.</p>"
    }
  },
  {
    "original": "Vampire Weaknesses",
    "data": {
      "name": "Upíří slabiny",
      "data.description.value": "<p>{tvor} má následující vady:</p><p><em>Zákaz.</em> {tvor} nemůže vstoupit do obydlí bez pozvání některého z obyvatel.</p><p><em>Zranění z tekoucí vody.</em> {tvor} utrpí kyselinové zranění 20, skončí-li svůj tah v tekoucí vodě.</p><p><em>Kůl do srdce.</em> Je-li {tvor} srdce probodnuto dřevěnou bodnou zbraní, když je {tvor} na svém místě odpočinku a je neschopný, tak je zničen.</p><p><em>Přecitlivělost na sluneční světlo.</em> Když {tvor} začne svůj tah ve slunečním světle, utrpí zářivé zranění 20. Když je ve slunečním světle, má nevýhodu k hodům na útok a ověřením vlastností.</p>"
    }
  },
  {
    "original": "Sunlight Sensitivity",
    "data": {
      "name": "Citlivost na sluneční světlo",
      "data.description.value": "<p>Když je {tvor} ve slunečním světle, má nevýhodu k hodům na útok a ověřením Moudrosti (Vnímání) opírajícími se o zrak.</p>"
    }
  },
  {
    "original": "Illumination",
    "data": {
      "name": "Svícení",
      "data.description.value": "<p>{tvor} osvítí jasným světlem okruh o poloměru 6 sáhů a slabým světlem dalších 6 sáhů.</p>"
    }
  },
  {
    "original": "Inscrutable",
    "data": {
      "name": "Nevyzpytatelná",
      "data.description.value": "<p>{tvor} je imunní vůči jakémukoliv účinku, který by zjistil její emoce nebo jí četl myšlenky, i vůči jakémukoli věšteckému kouzlu, které odmítá. Ověření Moudrosti (Vhledu) pro zjištění záměrů či upřímnosti {tvor} mají nevýhodu.</p>"
    }
  },
  {
    "original": "Invisible Passage",
    "data": {
      "name": "Neviditelný průchod",
      "data.description.value": "<p>{tvor} se magicky zneviditelní, dokud nezaútočí či nesešle kouzlo, nebo dokud neskončí její soustředění (jako by se soustředila na kouzlo). Když je neviditelná, nezanechává žádné fyzické stopy o svém průchodu, takže ji lze stopovat jen pomocí magie. Vybavení, které drží nebo má na sobě, se zneviditelní spolu s ní.</p>"
    }
  },
  {
    "original": "Spider Climb",
    "data": {
      "name": "Pavoučí šplh",
      "data.description.value": "<p>{tvor} umí šplhat po těžkých površích, včetně stropu hlavou dolů, aniž by si musel házet na ověření vlastnosti.</p>"
    }
  },
  {
    "original": "Move (legendary)",
    "data": {
      "name": "Pohyb",
      "data.description.value": "<p>{tvor} se pohne až svou rychlostí, aniž by tím vyvolal příležitostné útoky.</p>"
    }
  },
  {
    "original": "Rust Metal",
    "data": {
      "name": "Rezivění kovu",
      "data.description.value": "<p>Každá nemagická zbraň z kovu, která zasáhne {tvor}}, zkoroduje. Po způsobení zranění zbraň utrpí kumulativní postih –1 k hodům na zranění. Naroste-li postih na –5, zbraň se zničí. Nemagické střelivo z kovu, které zasáhne {tvor}}, se po způsobení zranění zničí.</p>"
    }
  },
  {
    "original": "Dreadful Glare",
    "data": {
      "name": "Hrozivý pohled",
      "data.description.value": "<p>{tvor} zacílí jednoho tvora, kterého vidí do 12 sáhů od sebe. Pokud cíl vidí vznešenou {tvor}}, musí uspět v záchranném hodu na Moudrost proti této magii se SO 16, jinak se vystraší do konce příštího tahu {tvor}. Neuspěje-li cíl v záchranném hodu o 5 či více, je také paralyzovaný po stejnou dobu trvání. Cíl, který uspěje v záchranném hodu, je imunní vůči Hrozivému pohledu všech {tvor} na příštích 24 hodin.</p>"
    }
  },
  {
    "original": "Mucous Cloud",
    "data": {
      "name": "Slizký oblak",
      "data.description.value": "<p>Zatímco je {tvor} pod vodou, je obklopen měnícím se {tvor}. Tvor, který se {tvor} dotkne nebo ho zasáhne útokem na blízko ze vzdálenosti do 1 sáhu, si musí hodit záchranný hod na Odolnost se SO 14. Když tvor neuspěje, nakazí se na 1k4 hodin. Nakažený tvor může dýchat jen pod vodou.</p>"
    }
  },
  {
    "original": "Magic Resistance",
    "data": {
      "name": "Magické odolání",
      "data.description.value": "<p>{tvor} má výhodu k záchranným hodům proti kouzlům a ostatním magickým účinkům.</p>"
    }
  },
  {
    "original": "Luring Song",
    "data": {
      "name": "Podmanivá píseň",
      "data.description.value": "<p>{tvor} zazpívá magickou melodii. Každý humanoid a obr do 60 sáhů od {tvor}}, který píseň slyší, musí uspět v záchranném hodu na Moudrost se SO 11, jinak je zmámený, dokud píseň neskončí. {tvor} může pokračovat ve zpívání pomocí bonusové akce v následujících tazích. Přestat zpívat může kdykoliv. Pokud se {tvor} stane neschopnou, píseň skončí.</p><p>Když je cíl zmámený {tvor}}, je neschopný a ignoruje písně jiných {tvor}. Je-li od {tvor} dál než 1 sáh, musí se ve svém tahu pohnout k {tvor} nejpřímější trasou. Nevyhýbá se příležitostným útokům, ale než vstoupí na zraňující terén, například lávu či jámu, a kdykoliv utrpí zranění jinak než od této {tvor}}, může si hodit záchranný hod znovu. Tvor také může zopakovat záchranný hod na konci každého svého tahu. Je-li tvorův záchranný hod úspěšný, účinek pro něj skončí.</p><p>Cíl, který uspěje v záchraně, bude imunní vůči písni této {tvor} 24 hodin.</p>"
    }
  },
  {
    "original": "Weakening Breath",
    "data": {
      "name": "Oslabující dech",
      "data.description.value": "<p>{tvor} vydechne plyn v kuželu 18 sáhů. Každý tvor v této oblasti musí uspět v záchranném hodu na Sílu se SO 24, jinak na 1 minutu utrpí nevýhodu k hodům na útok založených na Síle, ověřením Síly a záchranným hodům na Sílu. Tvor může zopakovat záchranný hod na konci každého svého tahu a při úspěchu pro něj účinek skončí.</p>"
    }
  },
  {
    "original": "Reel",
    "data": {
      "name": "Navinutí",
      "data.description.value": "<p>{tvor} přitáhne každého tvora, kterého uchvacuje, až o 5 sáhů k sobě.</p>"
    }
  },
  {
    "original": "Assassinate",
    "data": {
      "name": "Zabití",
      "data.description.value": "<p>Během prvního tahu má {tvor} výhodu k hodům na útok proti každému tvorovi, který ještě neprovedl v boji svůj tah. Každý zásah, který {tvor} způsobí překvapenému tvorovi, je kritický zásah.</p>"
    }
  },
  {
    "original": "Legendary Resistance",
    "data": {
      "name": "Legendární odolání (3/den)",
      "data.description.value": "<p>Neuspěje-li {tvor} v záchranném hodu, může si místo toho zvolit, že uspěje.</p>"
    }
  },
  {
    "original": "Cunning Action",
    "data": {
      "name": "Mazaná akce",
      "data.description.value": "<p>Každý svůj tah může {tvor} provést Odpoutání se, Schování nebo Sprint jako bonusovou akci.</p>"
    }
  },
  {
    "original": "Poison Breath",
    "data": {
      "name": "Jedovatý dech (obnovení 6)",
      "data.description.value": "<p>{tvor} vydechne jedovatý plyn v kuželu 3 sáhy. Každý tvor v oblasti si musí hodit záchranný hod na Odolnost se SO 19. Když tvor neuspěje, utrpí jedové zranění 45 (10k8), nebo poloviční zranění při úspěšném záchranném hodu.</p>"
    }
  },
  {
    "original": "Sense Magic",
    "data": {
      "name": "Vnímání magie",
      "data.description.value": "<p>{tvor} vnímá magii do 24 sáhů od sebe. Tento rys jinak funguje jako kouzlo <em>najdi magii</em>, ale sám o sobě není magický.</p>"
    }
  },
  {
    "original": "Slowing Breath",
    "data": {
      "name": "Zpomalující dech",
      "data.description.value": "<p>{tvor} vydechne plyn v kuželu 18 sáhů. Každý tvor v této oblasti musí uspět v záchranném hodu na Odolnost se SO 22. Když tvor neuspěje, nemůže používat reakce, jeho rychlost klesne na polovinu a ve svém tahu nemůže provést víc než jeden útok. Navíc tvor může ve svém tahu provést buď akci, nebo bonusovou akci, ne obojí. Tyto účinky trvají 1 minutu. Tvor může zopakovat záchranný hod na konci každého svého tahu a při úspěšné záchraně pro něj účinek skončí.</p>"
    }
  },
  {
    "original": "Rejuvenation",
    "data": {
      "name": "Omlazení",
      "data.description.value": "<p>Zničená {tvor} získá nové tělo za 24 hodin, pokud je její srdce neporušené, obnoví si všechny životy a stane se znovu aktivní. Nové tělo se objeví do 1 sáhu od srdce vznešené {tvor}.</p>"
    }
  },
  {
    "original": "Keen Senses",
    "data": {
      "name": "Bystré smysly",
      "data.description.value": "<p>{tvor} má výhodu k ověřením Moudrosti (Vnímání), která se opírají o zrak, sluch nebo čich.</p>"
    }
  },
  {
    "original": "Change Shape",
    "data": {
      "name": "Změna podoby",
      "data.description.value": "<p>{tvor} se magicky promění v humanoida či zvíře, jež nemá vyšší nebezpečnost než on sám, nebo zpět do své skutečné podoby. Pokud zemře, navrátí se do své skutečné podoby. Vybavení, které drží nebo nese, splyne s novou podobou, nebo ho nová podoba ponese (dle {tvor} volby).</p><p>V nové podobě si {tvor} uchová své přesvědčení, životy, {tvor} životů, schopnost mluvit, zdatnosti, Legendární odolání, akce doupěte a hodnoty Inteligence, Moudrosti a Charismatu, stejně jako tuto akci. Jeho statistiky a schopnosti se jinak nahradí těmi z nové podoby, kromě schopností povolání nebo legendárních akcí oné podoby.</p>"
    }
  },
  {
    "original": "Antimagic Susceptibility",
    "data": {
      "name": "Náchylnost na antimagii",
      "data.description.value": "<p>Zbroj je neschopná, když je v oblasti <em>antimagického pole</em>. Je-li zbroj cílem <em>rozptyl magii</em>, musí uspět v záchranném hodu na Odolnost proti SO záchrany kouzla sesilatele, jinak upadne do bezvědomí na 1 minutu.</p>"
    }
  },
  {
    "original": "Lightning Absorption",
    "data": {
      "name": "Pohlcování blesků",
      "data.description.value": "<p>Kdykoliv má {tvor} utrpět bleskové zranění, neutrpí žádné zranění, a místo toho si obnoví počet životů rovný utrpěnému bleskovému zranění.</p>"
    }
  },
  {
    "original": "Breath Weapons",
    "data": {
      "name": "Dech (obnovení 5 – 6)",
      "data.description.value": "<p>{tvor} použije jeden z následujících dechů.</p>"
    }
  },
  {
    "original": "Aberrant Ground",
    "data": {
      "name": "Zrůdná zem",
      "data.description.value": "<p>Zem v okruhu 2 sáhy kolem {tvor} je těstovitý těžký terén. Každý tvor, který začne svůj tah v této oblasti, musí uspět v záchranném hodu na Sílu se SO 10, jinak jeho rychlost klesne na 0 do začátku jeho příštího tahu.</p>"
    }
  },
  {
    "original": "Wall of Ice",
    "data": {
      "name": "Ledová zeď (obnovení 6)",
      "data.description.value": "<p>{tvor} magicky stvoří neprůhlednou ledovou zeď na pevném povrchu, který vidí do 12 sáhů od sebe. Zeď je 1 stopu tlustá a až 6 sáhů dlouhá a 2 sáhy vysoká, nebo je polokulovitá kopule o průměru 4 sáhy.</p><p>Když se zeď objeví, každý tvor na jejím místě je odtlačen mimo ni nejkratší cestou. Tvor si zvolí, na jaké straně zdi skončí, pokud není neschopný. Potom si tvor hodí záchranný hod na Obratnost se SO 17 a utrpí chladné zranění 35 (10k6), nebo poloviční zranění při úspěšném záchranném hodu.</p><p>Zeď vydrží 1 minutu, nebo dokud se {tvor} nestane neschopný či nezemře. Zeď se dá poškodit a prolomit; každý dvousáhový blok má OČ 5 a 30 životů, je zranitelná vůči ohnivému poškození a imunní vůči chladnému, jedovému kyselinovému, nekrotickému a psychickému zranění. Je-li blok zničen, zanechá po sobě pás ledového vzduchu v místě, kde stála zeď. Kdykoliv tvor skončí v tahu pohyb skrz ledový vzduch, dobrovolně či nedobrovolně, musí si hodit záchranný hod na Odolnost se SO 17. Když tvor neuspěje, utrpí chladné zranění 17 (5k6), nebo poloviční zranění při úspěšném záchranném hodu. Ledový vzduch se ztratí, když zbytek zdi zmizí.</p>"
    }
  },
  {
    "original": "Tail Swipe (Legendary)",
    "data": {
      "name": "Výpad ocasem",
      "data.description.value": "<p>{tvor} zaútočí jednou ocasem.</p>"
    }
  },
  {
    "original": "Regional Effects",
    "data": {
      "name": "Regionální účinky",
      "data.description.value": "<p>Region obsahující chrám nebo hrobku {tvor} je deformovaný její přítomností, což vytvoří jeden či více z následujících účinků:</p><ul><li>Jídlo se okamžitě zkazí a voda vypaří, když se přinese do doupěte. Jiné nemagické nápoje se zkazí — například z vína se stane ocet.</li> <li>Věštecká kouzla seslaná někým jiným než {tvor} mají 25% šanci, že poskytnou falešné výsledky dle volby PJ. Má-li již věštecké kouzlo šanci na neúspěch či nespolehlivost, když se sešle několikrát, ona šance se zvýší o 25 %.</li> <li>Tvor, který ukradne poklad z doupěte, je proklet, dokud se poklad nevrátí. Prokletý cíl má nevýhodu ke všem záchranným hodům. Kletbu lze také odstranit kouzlem <em>sejmi kletbu</em> či jinou magií.</li></ul><p>Pokud je {tvor} zničena, tyto účinky okamžitě pominou.</p>"
    }
  },
  {
    "original": "Fire Aura",
    "data": {
      "name": "Ohnivá aura",
      "data.description.value": "<p>Na začátku každého {tvor} tahu každý tvor do 1 sáhu od něj utrpí ohnivé zranění 10 (3k6) a zapaluje v auře hořlavé předměty, které nikdo nedrží ani nenese. Tvor, který se dotkne {tvor} nebo ho zasáhne útokem na blízko ze vzdálenosti do 1 sáhu, utrpí ohnivé zranění 10 (3k6).</p>"
    }
  },
  {
    "original": "Channel Negative Energy",
    "data": {
      "name": "Vypuštění negativní energie (stojí 2 akce)",
      "data.description.value": "<p>{tvor} magicky vypustí negativní energii. Tvorové do 12 sáhů od ní, včetně těch za bariérami a rohy, si nemohou obnovit životy do konce příštího tahu {tvor}.</p>"
    }
  },
  {
    "original": "Incorporeal Movement",
    "data": {
      "name": "Nehmotný pohyb",
      "data.description.value": "<p>{tvor} se může pohybovat skrz ostatní tvory a objekty, jako by byli těžký terén. Pokud skončí svůj tah v objektu, utrpí silové zranění 5 (1k10).</p>"
    }
  },
  {
    "original": "Lightning Breath",
    "data": {
      "name": "Bleskový dech (obnovení 5 – 6)",
      "data.description.value": "<p>{tvor} vydechne blesk v 24 sáhů dlouhé a 2 sáhy široké dráze. Každý tvor v dráze si musí hodit záchranný hod na Obratnost se SO 23. Když tvor neuspěje, utrpí bleskové zranění 88 (16k10), nebo poloviční zranění při úspěšném záchranném hodu.</p>"
    }
  },
  {
    "original": "Grasping Tendrils",
    "data": {
      "name": "Uchvacující úponky",
      "data.description.value": "<p>{tvor} může mít až šest úponků najednou. Na každý úponek se dá zaútočit (OČ 20; 10 životů; imunita vůči jedovému a psychickému zranění). Zničení úponku nezpůsobí krápnitci žádné zranění, a ten může v příštím tahu vysunout nahrazený úponek. Úponek se dá i zlomit, pokud tvor provede akci a uspěje v ověření Síly se SO 15 proti němu.</p>"
    }
  },
  {
    "original": "Fey Ancestry",
    "data": {
      "name": "Vílí původ",
      "data.description.value": "<p>{tvor} má výhodu k záchranným hodům proti zmámení a magie ho nemůže uspat.</p>"
    }
  },
  {
    "original": "Underwater Camouflage",
    "data": {
      "name": "Podvodní maskování",
      "data.description.value": "<p>{tvor} má výhodu k ověřením Obratnosti (Nenápadnosti) při schovávání pod vodou.</p>"
    }
  },
  {
    "original": "Limited Magic Immunity",
    "data": {
      "name": "Omezená imunita vůči magii",
      "data.description.value": "<p>{tvor} nelze ovlivnit ani najít kouzly 6. či nižší úrovně, pokud si to nepřeje. Má výhodu k záchranným hodům proti ostatním kouzlům a magickým účinkům.</p>"
    }
  },
  {
    "original": "Immutable Form",
    "data": {
      "name": "Neměnná podoba",
      "data.description.value": "<p>{tvor} je imunní vůči jakémukoli kouzlu či účinku, který by změnil jeho podobu.</p>"
    }
  },
  {
    "original": "Fear Aura",
    "data": {
      "name": "Aura strachu",
      "data.description.value": "<p>Každý tvor, který je vůči {tvor} nepřátelský a začne svůj tah do 4 sáhů od něj, si musí hodit záchranný hod na Moudrost se SO 21, pokud {tvor} není neschopný. Pokud tvor neuspěje, bude vystrašený do začátku svého příštího tahu. Je-li tvorův záchranný hod úspěšný, bude vůči {tvor} Auře strachu imunní 24 hodin.</p>"
    }
  },
  {
    "original": "Pounce",
    "data": {
      "name": "Strhnutí (jen v tygří či hybridní podobě)",
      "data.description.value": "<p>Pohne-li se {tvor} aspoň 3 sáhy přímo k cíli a pak ho zasáhne drápy ve stejném tahu, cíl musí uspět v záchranném hodu na Sílu se SO 14, jinak je sražen k zemi. Je-li cíl sražen k zemi, {tvor} na něj může jednou zaútočit kousnutím jako bonusovou akci.</p>"
    }
  },
  {
    "original": "Possession",
    "data": {
      "name": "Posednutí (obnovení 6)",
      "data.description.value": "<p>Jeden humanoid, kterého {tvor} vidí do 1 sáhu od sebe, musí uspět v záchranném hodu na Charisma se SO 13, jinak ho {tvor} posedne; {tvor} pak zmizí a cíl je neschopný a ztratí kontrolu nad svým tělem. Tělo nyní ovládá {tvor}}, ale neotupí vnímavost cíle. {tvor} nelze zacílit útokem, kouzlem ani jiným účinkem, kromě těch, které odvrací nemrtvé, a uchová si své přesvědčení, Inteligenci, Moudrost, Charisma a imunitu vůči vystrašení a zmámení. Jinak používá statistiky posedlého cíle, ale nemá přístup k jeho znalostem, schopnostem povolání ani zdatnostem.</p><p>Posednutí trvá, dokud se tělu nesníží životy na 0, neukončí ho {tvor} jako bonusovou akci, nebo není {tvor} odvrácen či vypuzen účinkem, jako je například kouzlo <em>rozptyl zlo a dobro</em>. Když posednutí skončí, {tvor} se znovu objeví na volném místě do 1 sáhu od těla. Když si cíl úspěšně hodí záchranu, nebo až pro něj posednutí skončí, bude imunní vůči Posednutí tohoto {tvor} 24 hodin.</p>"
    }
  },
  {
    "original": "Ethereal Stride",
    "data": {
      "name": "Éterická chůze",
      "data.description.value": "<p>{tvor} a až tři tvorové, kteří s tím souhlasí a jsou do 1 sáhu od ní, mohou vejít z Materiální sféry do Éterické sféry, nebo naopak.</p>"
    }
  },
  {
    "original": "Detect (Legendary)",
    "data": {
      "name": "Hledání",
      "data.description.value": "<p>{tvor} si hodí na ověření Moudrosti (Vnímání).</p>"
    }
  },
  {
    "original": "Split",
    "data": {
      "name": "Rozdělení",
      "data.description.value": "<p>Když Střední či větší {tvor} s nejméně 10 životy by měl utrpět bleskové nebo sečné zranění, rozdělí se do dvou nových {tvor}. Každý z nových {tvor} má životy rovné polovině původního {tvor}}, zaokrouhleno dolů. Nové {tvor} jsou o jednu třídu velikosti menší než původní {tvor}.</p>"
    }
  },
  {
    "original": "Psychic Drain",
    "data": {
      "name": "Psychické vysátí (stojí 2 akce)",
      "data.description.value": "<p>Jeden tvor, který je {tvor} zmámený, utrpí psychické zranění 10 (3k6) a {tvor} si obnoví životy rovné zranění, jež tvor utrpí.</p>"
    }
  },
  {
    "original": "Shriek",
    "data": {
      "name": "Vřískání",
      "data.description.value": "<p>Když je do 6 sáhů od {tvor} jasné světlo nebo tvor, vydává vřískot slyšitelný 60 sáhů od něj. {tvor} vříská, dokud se jeho důvod rozrušení nevzdálí z daného okruhu, a ještě 1k4 {tvor} tahů poté.</p>"
    }
  },
  {
    "original": "Stench",
    "data": {
      "name": "Puch",
      "data.description.value": "<p>Každý tvor, který začne svůj tah do 2 sáhů od {tvor}}, musí uspět v záchranném hodu na Odolnost se SO 14, jinak se otráví do začátku svého příštího tahu. Při úspěšném záchranném hodu je tvor imunní vůči {tvor} Puchu 24 hodin.</p>"
    }
  },
  {
    "original": "Flying Sword",
    "data": {
      "name": "Létající meč",
      "data.description.value": "<p>{tvor} vypustí obouruční meč, aby se magicky vznášel na volném místě do 1 sáhu od něj. Pokud {tvor} meč vidí, může mu mentálně přikázat jako bonusovou akci, aby letěl až 10 sáhů a buď jednou zaútočil proti cíli, nebo se vrátil do {tvor} rukou. Je-li vznášející se meč zacílen účinkem, má se za to, že {tvor} meč drží. Pokud {tvor} zemře, vznášející se meč spadne.</p>"
    }
  },
  {
    "original": "Running Leap",
    "data": {
      "name": "Skok s rozběhem",
      "data.description.value": "<p>S rozběhem 2 sáhy může {tvor} skočit do dálky až 5 sáhů.</p>"
    }
  },
  {
    "original": "Lair Actions",
    "data": {
      "name": "Akce doupěte",
      "data.description.value": "<p>Na iniciativu 20 (prohrávající všechny remízy) může {tvor} provést akci doupěte, která způsobí jeden z následujících účinků; {tvor} nemůže použít stejný účinek dvě kola po sobě.</p><ul><li>Každý nemrtvý tvor v doupěti zná polohu každého živého tvora do 24 sáhů od sebe do iniciativy 20 v příštím kole.</li> <li>Každý nemrtvý v doupěti má výhodu k záchranným hodům proti účinkům, které odvrací nemrtvé, do iniciativy 20 v příštím kole.</li> <li>Do iniciativy 20 v příštím kole každý tvor, který není nemrtvý a pokusí se seslat kouzlo 4. či nižší úrovně v doupěti vznešené {tvor}}, zažije bolest. Tvor si může zvolit jinou akci, ale pokud se pokusí seslat kouzlo, musí uspět v záchranném hodu na Odolnost se SO 16. Když neuspěje, utrpí nekrotické zranění 1k6 za každou úroveň kouzla a kouzlo nepůsobí a vyplýtvá se</li></ul>"
    }
  },
  {
    "original": "Reflective Carapace",
    "data": {
      "name": "Odrazný krunýř",
      "data.description.value": "<p>Pokaždé, když je {tvor} zacílen kouzlem <em>magická střela</em>, kouzlem s dráhou nebo kouzlem, které vyžaduje hod na útok na dálku, hoď si k6. Padne-li 1 až 5, {tvor} není ovlivněn. Když padne 6, {tvor} není ovlivněn a účinek je odražen zpět na sesilatele, jako kdyby vycházel z {tvor} a sesilatel se stane cílem.</p>"
    }
  },
  {
    "original": "Teleport",
    "data": {
      "name": "Teleport",
      "data.description.value": "<p>{tvor} se magicky teleportuje, spolu se svým vybavením, které drží nebo má na sobě, až 24 sáhů na volné místo, které vidí.</p>"
    }
  },
  {
    "original": "Nimble Escape",
    "data": {
      "name": "Hbitý únik",
      "data.description.value": "<p>{tvor} může v každém svém tahu provést akci Schování nebo Odpoutání se jako bonusovou akci.</p>"
    }
  },
  {
    "original": "Roar",
    "data": {
      "name": "Řev (3/den)",
      "data.description.value": "<p>{tvor} magicky zařve. Pokaždé, když znovu zařve, než si důkladně odpočine, je zařvání hlasitější a účinek jiný, jak je uvedeno níže. Každý tvor, který řev slyší a je do 100 sáhů od {tvor}}, si musí hodit záchranný hod.</p>"
    }
  },
  {
    "original": "Barbed Hide",
    "data": {
      "name": "Ostnatá kůže",
      "data.description.value": "<p>Na začátku každého svého tahu ostnatý dábel způsobí bodné zranění 5 (1k10) tvorovi, který ho uchvacuje.</p>"
    }
  },
  {
    "original": "Berserk",
    "data": {
      "name": "Berserkr",
      "data.description.value": "<p>Kdykoliv {tvor} začne svůj tah s 40 či méně životy, hoď k6. Padne-li 6, {tvor} se změní v berserkra. V každém svém tahu jako berserkr {tvor} zaútočí na nejbližšího tvora, kterého vidí. Není-li dostatečně blízko žádný tvor, ke kterému by se {tvor} mohl pohnout a zaútočit na něj, tak {tvor} zaútočí na předmět, přičemž dává přednost předmětu, který je menší než on. Jakmile se {tvor} změní v berserkra, zůstane v něm, dokud není zničen, nebo dokud si neobnoví všechny životy.</p><p>Je-li do 12 sáhů od {tvor}-berserkra jeho tvůrce, může se ho pokusit zklidnit tím, že na něj rozhodně a přesvědčivě promluví. {tvor} musí slyšet svého tvůrce, který si pomocí své akce hodí na ověření Charismatu (Přesvědčování) se SO 15. Pokud v ověření uspěje, {tvor} se uklidní a přestane být berserkrem. Pokud utrpí zranění, když má stále 40 či méně životů, může se znovu změnit v berserkra.</p>"
    }
  },
  {
    "original": "Tentacle Slam",
    "data": {
      "name": "Bouchnutí chapadlem",
      "data.description.value": "<p>{tvor} bouchne s tvory, které uchvacuje, o pevný povrch, nebo o sebe navzájem. Každý tvor musí uspět v záchranném hodu na Odolnost se SO 14, jinak utrpí drtivé zranění 10 (2k6 + 3) a je ochromen do konce {tvor} příštího tahu. Při úspěšné záchraně utrpí cíl poloviční drtivé zranění a není ochromen.</p>"
    }
  },
  {
    "original": "Fey Charm",
    "data": {
      "name": "Vílí zmámení",
      "data.description.value": "<p>{tvor} zacílí jednoho humanoida či zvíře, které vidí do 6 sáhů od sebe. Pokud cíl vidí dryádu, musí uspět v záchranném hodu na Moudrost se SO 14, jinak ho {tvor} magicky zmámí. Zmámený tvor považuje dryádu za důvěryhodného přítele, na kterého je třeba brát ohled a chránit ho. I když cíl není pod dryádinou kontrolou, přijímá její požadavky a činy nejpříznivějším možným způsobem.</p><p>Pokaždé, když {tvor} nebo její spojenci nějak cíl poškodí, může cíl zopakovat záchranný hod a při úspěchu pro něj účinek skončí. Jinak účinek trvá 24 hodin, nebo dokud {tvor} nezemře, není v jiné sféře existence než cíl, či neukončí účinek jako bonusovou akci. Je-li záchranný hod cíle úspěšný, bude vůči Vílímu zmámení dryády imunní 24 hodin.</p><p>{tvor} může mít najednou zmámeného maximálně jednoho humanoida a až tři zvířata.</p>"
    }
  },
  {
    "original": "Create Specter",
    "data": {
      "name": "Stvoř spektru",
      "data.description.value": "<p>{tvor} zacílí humanoida do 2 sáhů od sebe, který zemřel násilně a je mrtvý maximálně 1 minutu. Duše cíle povstane jako spektra na místě mrtvoly, nebo na nejbližším volném místě. Spektra je pod kontrolou {tvor}. {tvor} může mít najednou maximálně sedm spekter pod svou kontrolou.</p>"
    }
  },
  {
    "original": "Shielded Mind",
    "data": {
      "name": "Shielded Mind",
      "data.description.value": "<p>{tvor} je imunní vůči kouzlu sledování a jakémukoliv účinku, který by zjistil jeho emoce, četl mu myšlenky nebo zjistil jeho polohu.</p>"
    }
  },
  {
    "original": "First Roar",
    "data": {
      "name": "První zařvání",
      "data.description.value": "<p>Každý tvor, který nesupěje v záchranném hodu na Moudrost se SO 18, se vystraší na 1 minutu. Vystrašený tvor může zopakovat záchranný hod na konci každého svého tahu a při úspěchu pro něj účinek skončí.</p>"
    }
  },
  {
    "original": "Wakeful",
    "data": {
      "name": "Bdělá",
      "data.description.value": "<p>Zatímco {tvor} spí, aspoň jedna z jejích hlav je vzhůru.</p>"
    }
  },
  {
    "original": "Acid Absorption",
    "data": {
      "name": "Pohlcování kyseliny",
      "data.description.value": "<p>Kdykoliv má {tvor} utrpět kyselinové zranění, neutrpí žádné zranění, a místo toho si obnoví počet životů rovný utrpěnému kyselinovému zranění.</p>"
    }
  },
  {
    "original": "Air Form",
    "data": {
      "name": "Vzdušná forma",
      "data.description.value": "<p>{tvor} může vstoupit na místo nepřátelského tvora a zastavit se tam. Umí se pohnout otvorem širokým aspoň 1 coul, aniž by se protlačoval.</p>"
    }
  },
  {
    "original": "Fire Absorption",
    "data": {
      "name": "Pohlcování ohně",
      "data.description.value": "<p>Kdykoliv má {tvor} utrpět ohnivé zranění, neutrpí žádné zranění, a místo toho si obnoví počet životů rovný utrpěnému ohnivému zranění.</p>"
    }
  },
  {
    "original": "Shark Telepathy",
    "data": {
      "name": "Telepatie se žraloky",
      "data.description.value": "<p>{tvor} umí magicky udělit příkaz jakémukoli {tvor} do 24 sáhů od sebe, pomocí omezené telepatie.</p>"
    }
  },
  {
    "original": "Devil Sight",
    "data": {
      "name": "Ďábelský zrak",
      "data.description.value": "<p>Magická tma nebrání {tvor} vidění ve tmě.</p>"
    }
  },
  {
    "original": "Ignited Illumination",
    "data": {
      "name": "Zápalné svícení",
      "data.description.value": "<p>{tvor} může vzplanout nebo uhasit své plameny jako bonusovou akci. Když {tvor} hoří, osvítí jasným světlem okruh o poloměru 2 sáhy a slabým světlem další 2 sáhy.</p>"
    }
  },
  {
    "original": "Pack Tactics",
    "data": {
      "name": "Taktika smečky",
      "data.description.value": "<p>{tvor} má výhodu k hodům na útok proti tvorovi, je-li do 1 sáhu od tvora aspoň jeden {tvor} spojenec, jenž není neschopný.</p>"
    }
  },
  {
    "original": "Undead Fortitude",
    "data": {
      "name": "Nemrtvá výdrž",
      "data.description.value": "<p>V případě, že zranění sníží {tvor} životy na 0 a nejedná se o zářivé zranění ani zranění z kritického zásahu, hodí si {tvor} záchranný hod na Odolnost se SO rovným 5 + utrpěné zranění. Pokud {tvor} uspěje, sníží se jí životy místo toho na 1.</p>"
    }
  },
  {
    "original": "Nightmare Haunting",
    "data": {
      "name": "Strašení noční můrou (1/den)",
      "data.description.value": "<p>Zatímco je {tvor} v Éterické sféře, magicky se dotýká spícího humanoida v Materiální sféře. Tomuto kontaktu může zabránit kouzlo <em>ochrana před zlem a dobrem</em> seslané na cíl, stejně jako <em>magický kruh</em>. Dokud kontakt trvá, cíl má děsivé vize. Pokud tyto vize trvají aspoň 1 hodinu, cíl ze svého odpočinku nezíská žádný prospěch a jeho maximum životů se sníží o 5 (1k10). Sníží-li tento účinek maximum životů cíle na 0, cíl zemře, a byl-li cíl zlý, jeho duše se uvězní v {tvor} <em>vaku na dušičku</em>. Snížení maxima životů cíle trvá, dokud se neodstraní kouzlem <em>mocné navrácení</em> či obdobnou magií.</p>"
    }
  },
  {
    "original": "Shapechanger",
    "data": {
      "name": "Tvaroměnec",
      "data.description.value": "<p>{tvor} se může pomocí své akce proměnit v humanoidního tvora nebo jiného tvora, nebo zpět do své skutečné podoby, kterou je humanoid. Jeho statistiky, kromě jeho OČ, jsou v každé podobě stejné. Vybavení, které drží nebo nese, se nepřemění. Pokud zemře, navrátí se do své skutečné podoby.</p>"
    }
  },
  {
    "original": "Ephemeral",
    "data": {
      "name": "Pomíjivá",
      "data.description.value": "<p>{tvor} nemůže mít nic oblečené ani nic nosit.</p>"
    }
  },
  {
    "original": "Moan",
    "data": {
      "name": "Sténání",
      "data.description.value": "<p>Každý tvor do 12 sáhů od {tvor}}, který ho slyší a není zrůda, musí uspět v záchranném hodu na Moudrost se SO 13, jinak se vystraší do konce {tvor} příštího tahu. Je-li tvorův záchranný hod úspěšný, bude vůči {tvor} sténání imunní 24 hodin.</p>"
    }
  },
  {
    "original": "Duergar Resilience",
    "data": {
      "name": "Duergaří nezlomnost",
      "data.description.value": "<p>{tvor} má výhodu k záchranným hodům proti jedu, kouzlům a iluzím i proti zmámení či paralýze.</p>"
    }
  },
  {
    "original": "Elemental Demise",
    "data": {
      "name": "Živelný zánik",
      "data.description.value": "<p>Pokud {tvor} zemře, jeho tělo se rozloží ve výšleh ohně a závan kouře a zůstane po něm jen vybavení, co držel nebo měl na sobě.</p>"
    }
  },
  {
    "original": "Bite",
    "data": {
      "name": "Kousnutí",
      "data.description.value": "<p><em>Útok na blízko zbraní:</em> +6 k zásahu, dosah 1 sáh, jeden cíl. <em>Zásah:</em> Bodné zranění 9 (1k10 + 4).</p><p>{tvor} útočí kousnutím</p>"
    }
  },
  {
    "original": "Ethereal Sight",
    "data": {
      "name": "Éterický zrak",
      "data.description.value": "<p>{tvor} vidí 12 sáhů do Éterické sféry, když je v Materiální sféře, a naopak.</p>"
    }
  },
  {
    "original": "Charge",
    "data": {
      "name": "Zteč",
      "data.description.value": "<p>Pokud se {tvor} pohne aspoň o 4 sáhy přímo k cíli a pak ho ve stejném tahu zasáhne nabráním na rohy, cíl utrpí dodatečné drtivé zranění 7 (2k6). Je-li cílem tvor, musí uspět v záchranném hodu na Sílu se SO 11, jinak je sražen.</p>"
    }
  },
  {
    "original": "Third Roar",
    "data": {
      "name": "Třetí zařvání",
      "data.description.value": "<p>Každý tvor si musí hodit záchranný hod na Odolnost se SO 18. Když tvor neuspěje, utrpí hromové zranění 44 (8k10) a je sražen k zemi. Při úspěšné záchraně tvor utrpí poloviční zranění a není sražen k zemi.</p>"
    }
  },
  {
    "original": "Whirlwind of Sand",
    "data": {
      "name": "Písečný vír (stojí 2 akce)",
      "data.description.value": "<p>{tvor} se magicky přemění v písečný vír, pohne se až 12 sáhů a znovu se navrátí do své normální podoby. Během doby, co je v podobě písečného víru, je imunní vůči všem zraněním a nelze ji ochromit, srazit na zem, uchvátit, zadržet ani zkamenět. Vybavení, které {tvor} drží nebo má na sobě, si ponechá.</p>"
    }
  },
  {
    "original": "Dark Devotion",
    "data": {
      "name": "Temná oddanost",
      "data.description.value": "<p>{tvor} má výhodu k záchranným hodům proti vystrašení nebo zmámení.</p>"
    }
  },
  {
    "original": "Hellish Rejuvenation",
    "data": {
      "name": "Pekelné omlazení",
      "data.description.value": "<p>{tvor}}, který zemře v Devíti peklech, obživne se všemi svými životy za 1k10 dní, pokud ho nezabije tvor s dobrým přesvědčením a na jeho ostatky se nesešle kouzlo požehnání nebo se (jeho ostatky) nepokropí svěcenou vodou.</p>"
    }
  },
  {
    "original": "Fetid Cloud",
    "data": {
      "name": "Smrdutý oblak (1/den)",
      "data.description.value": "<p>Z {tvor} se rozpíná odporný zelený plyn v okruhu 2 sáhy. Plyn se rozšiřuje kolem rohů a jeho oblast je slabě zahalená. Vydrží 1 minutu, nebo dokud ho nerozfouká silný vítr. Každý tvor, který začne svůj tah v této oblasti, musí uspět v záchranném hodu na Odolnost se SO 11, jinak se otráví do začátku svého příštího tahu. Když je cíl otrávený tímto způsobem, může ve svém tahu provést buď akci, nebo bonusovou akci, ne obojí, a nemůže provádět reakce.</p>"
    }
  },
  {
    "original": "Blasphemous Word",
    "data": {
      "name": "Rouhavé slovo (stojí 2 akce)",
      "data.description.value": "<p>{tvor} pronese rouhavé slovo. Každý tvor do 2 sáhů od ní, který magický projev slyší a sám není nemrtvý, musí uspět v záchranném hodu na Odolnost se SO 16, jinak je ochromen do konce příštího tahu vznešené {tvor}.</p>"
    }
  },
  {
    "original": "Ice Walk",
    "data": {
      "name": "Chůze po ledu",
      "data.description.value": "<p>{tvor} se umí pohybovat a šplhat po ledových površích, aniž by si musel házet na ověření vlastnosti. Navíc ho těžký terén, který se skládá z ledu či sněhu, nestojí dodatečný pohyb.</p>"
    }
  },
  {
    "original": "Horrific Appearance",
    "data": {
      "name": "Hrozný vzhled",
      "data.description.value": "<p>Každý humanoid, který začne svůj tah do 6 sáhů od {tvor} a vidí její skutečnou podobu, musí uspět v záchranném hodu na Moudrost se SO 11. Pokud tvor neuspěje, bude vystrašený 1 minutu. Tvor může zopakovat záchranný hod na konci každého svého tahu, s nevýhodou, pokud má {tvor} ve výhledu, a při úspěchu pro něj účinek skončí. Je-li tvorův záchranný hod úspěšný nebo pro něj účinek skončí, bude vůči Hroznému vzhledu {tvor} imunní 24 hodin.</p><p>Pokud cíl není překvapený nebo odhalení skutečné podoby {tvor} není náhlé, cíl může odvrátit svůj zrak a vyhnout se počátečnímu záchrannému hodu. Tvor, který odvrátí svůj zrak, má nevýhodu k hodům na útok proti {tvor} až do začátku svého příštího tahu.</p>"
    }
  },
  {
    "original": "Frost Breath",
    "data": {
      "name": "Ledový dech",
      "data.description.value": "<p>{tvor} vydechne chladný vzduch v kuželu 3 sáhy. Každý tvor v oblasti si musí hodit záchranný hod na Obratnost se SO 10. Když tvor neuspěje, utrpí chladné zranění 5 (2k4), nebo poloviční zranění při úspěšném záchranném hodu.</p>"
    }
  },
  {
    "original": "Haste",
    "data": {
      "name": "Rychlost (obnovení 5 – 6)",
      "data.description.value": "<p>Do konce svého příštího tahu {tvor} magicky získá bonus +2 k OČ, má výhodu k záchranným hodům na Obratnost a může zaútočit bouchnutím jako bonusovou akci.</p>"
    }
  },
  {
    "original": "Stunning Screech",
    "data": {
      "name": "Ochromující pištění (1/den)",
      "data.description.value": "<p>{tvor} hrozně zapiští. Každý tvor do 4 sáhů od něj, který ho slyší a není démon, musí uspět v záchranném hodu na Odolnost se SO 14, jinak je ochromen do konce {tvor} příštího tahu.</p>"
    }
  },
  {
    "original": "Swallow",
    "data": {
      "name": "Spolknutí",
      "data.description.value": "<p>{tvor} zaútočí jednou kousnutím proti Velkému či menšímu tvorovi, kterého uchvacuje. Pokud útok zasáhne, cíl utrpí zranění z kousnutí a je spolknut a uchvácení skončí. Zatímco je tvor spolknutý, je slepý a zadržený, má úplný kryt proti útokům a ostatním účinkům vně {tvor} a na začátku každého {tvor} tahu utrpí kyselinové zranění 56 (16k6).</p><p>Utrpí-li {tvor} zranění 60 či více v jediném tahu od spolknutého tvora, musí uspět v záchranném hodu na Odolnost se SO 20 na konci daného tahu, jinak vyzvrací všechny spolknuté tvory a ti dopadnou do lehu na místo do 2 sáhů od {tvor}. Pokud {tvor} zemře, spolknutý tvor jím přestane být zadržený a může uniknout z mrtvoly použitím 6 sáhů pohybu, přičemž {tvor} opustí vleže.</p>"
    }
  },
  {
    "original": "Blinding Dust",
    "data": {
      "name": "Oslepující prach",
      "data.description.value": "<p>Kolem {tvor} se magicky rozvíří oslepující prach a písek. Každý tvor do 1 sáhu od {tvor} musí uspět v záchranném hodu na Odolnost se SO 16, jinak oslepne do konce svého příštího tahu.</p>"
    }
  },
  {
    "original": "Deadly leap",
    "data": {
      "name": "Smrtící skok",
      "data.description.value": "<p>Pokud {tvor} skočí aspoň 3 sáhy jako součást svého pohybu, může pak použít svou akci k přistání na nohách na místě, které obsahuje jednoho či více jiných tvorů. Každý z těchto tvorů musí uspět v záchranném hodu na Sílu či Obratnost se SO 16 (dle volby cíle), jinak je sražen k zemi a utrpí drtivé zranění 14 (3k6 + 4) plus sečné zranění 14 (3k6 + 4). Při úspěšné záchraně tvor utrpí jen poloviční zranění, není sražen k zemi a je odtlačen 1 sáh mimo bultovo místo na volné místo dle tvorovy volby. Není-li v dosahu žádné volné místo, je tvor místo toho sražen k zemi na bultově místě.</p>"
    }
  },
  {
    "original": "Fire Breath",
    "data": {
      "name": "Ohnivý dech",
      "data.description.value": "<p>{tvor} vydechne oheň v kuželu 3 sáhy. Každý tvor v oblasti si musí hodit záchranný hod na Obratnost se SO 13. Když tvor neuspěje, utrpí ohnivé zranění 22 (4k10), nebo poloviční zranění při úspěšném záchranném hodu.</p>"
    }
  },
  {
    "original": "Limited Amphibiousness",
    "data": {
      "name": "Omezená obojživelnost",
      "data.description.value": "<p>{tvor} může dýchat vzduch a vodu, ale musí se ponořit aspoň jednou za 4 hodiny, aby se neudusil.</p>"
    }
  },
  {
    "original": "Ink Cloud",
    "data": {
      "name": "Inkoustový oblak (obnovení po krátkém či důkladném odpočinku)",
      "data.description.value": "<p>Je-li {tvor} pod vodou, inkoustový oblak o poloměru 4 sáhy se rozprostře všude kolem ní. Oblast je hustě zahalená na 1 minutu, i když významný proud může inkoust rozptýlit. Po vypuštění inkoustu může {tvor} použít akci Sprint jako bonusovou akci.</p>"
    }
  },
  {
    "original": "Water Breathing",
    "data": {
      "name": "Vodní dech",
      "data.description.value": "<p>{tvor} může dýchat jen pod vodou.</p>"
    }
  },
  {
    "original": "Siege Monster",
    "data": {
      "name": "Obléhací nestvůra",
      "data.description.value": "<p>{tvor} způsobuje předmětům a budovám dvojnásobné poškození.</p>"
    }
  },
  {
    "original": "Corrosive Form",
    "data": {
      "name": "Leptavá podoba",
      "data.description.value": "<p>Tvor, který se dotkne {tvor} nebo ho zasáhne útokem na blízko ze vzdálenosti do 1 sáhu, utrpí kyselinové zranění 4 (1k8). Každá nemagická zbraň z kovu či dřeva, která zasáhne {tvor}}, zkoroduje. Po způsobení zranění zbraň utrpí kumulativní postih –1 k hodům na zranění. Naroste-li postih na –5, zbraň se zničí. Nemagické střelivo z kovu či dřeva, které zasáhne {tvor}}, se po způsobení zranění zničí.</p><p>{tvor} se umí prožrat skrz 2 couly tlusté, nemagické dřevo či kov během 1 kola.</p>"
    }
  },
  {
    "original": "Leadership",
    "data": {
      "name": "Vůdcovství (obnovení po krátkém či důkladném odpočinku)",
      "data.description.value": "<p>1 minutu může {tvor} vydávat zvláštní příkaz či varování, kdykoliv tvor, který není vůči němu nepřátelský a kterého vidí do 6 sáhů od sebe, si hází na útok nebo záchranný hod. Tvor si může ke svému hodu přičíst k4, pokud {tvor} slyší a rozumí mu. Tvor může v jednu chvíli využívat pouze jednu Vůdcovskou {tvor}. Tento účinek skončí, pokud se {tvor} stane neschopným.</p>"
    }
  },
  {
    "original": "Frightening Gaze",
    "data": {
      "name": "Děsivý pohled (stojí 2 akce)",
      "data.description.value": "<p>{tvor} upře svůj pohled na jednoho tvora, kterého vidí do 2 sáhů od sebe. Cíl musí uspět v záchranném hodu na Moudrost se SO 18 proti této magii, jinak se vystraší na 1 minutu. Vystrašený cíl může zopakovat záchranný hod na konci každého svého tahu a při úspěchu pro něj účinek skončí. Pokud cíl uspěje v záchranném hodu, nebo pro něj účinek skončí, bude imunní vůči {tvor} Děsivému pohledu 24 hodin.</p>"
    }
  },
  {
    "original": "Transparent",
    "data": {
      "name": "Průhledná",
      "data.description.value": "<p>Aby si tvor všiml {tvor}}, která se nepohybuje ani neútočí, musí uspět v ověření Moudrosti (Vnímání) se SO 15, dokonce i když je {tvor} všem na očích. Tvor, který si není {tvor} vědom a pokusí se vejít na její místo, je {tvor} překvapen.</p>"
    }
  },
  {
    "original": "Angelic Weapons",
    "data": {
      "name": "Andělské zbraně",
      "data.description.value": "<p>{tvor} útoky zbraní jsou magické. Když {tvor} zasáhne zbraní, zbraň způsobí dodatečné zářivé zranění 6k8 (započítáno v útoku).</p>"
    }
  },
  {
    "original": "Tentacle Attack or Fling",
    "data": {
      "name": "Útok chapadlem, nebo Mrštění",
      "data.description.value": "<p>{tvor} zaútočí jednou chapadlem, nebo použije Mrštění.</p>"
    }
  },
  {
    "original": "Invisibility",
    "data": {
      "name": "Neviditelnost",
      "data.description.value": "<p>Tvor, kterého se dotkneš, se zneviditelní, dokud kouzlo neskončí. Cokoliv cíl nese, je neviditelné, dokud to neodloží. Kouzlo skončí pro daný cíl, pokud zaútočí nebo sešle kouzlo.</p> <p><em><strong>Na vyšších úrovních.</strong></em> Sešleš-li toto kouzlo použitím pozice kouzla 3. či vyšší úrovně, za každou další úroveň pozice nad 2. můžeš zacílit jednoho tvora navíc.</p>           "
    }
  },
  {
    "original": "Gibbering",
    "data": {
      "name": "Blekotání",
      "data.description.value": "<p>{tvor} nesouvisle blábolí, zatímco vidí nějakéhoho tvora a není neschopný. Každý tvor, který začne svůj tah do 4 sáhů od {tvor} a slyší ho, musí uspět v záchranném hodu na Moudrost se SO 10. Když tvor neuspěje, nemůže provádět reakce do začátku svého příštího tahu a hodem k8 určí, co bude dělat během svého tahu. 1 až 4, tvor neudělá nic. 5 či 6, tvor neprovede akci ani bonusovu akci a použije veškerý svůj pohyb k pohybu náhodně určeným směrem. 7 či 8, Tvor zaútočí na blízko proti náhodně určenému tvorovi ve svém dosahu, nebo neudělá nic, pokud nemůže provést takový útok.</p>"
    }
  },
  {
    "original": "Children of the Night",
    "data": {
      "name": "Děti noci (1/den)",
      "data.description.value": "<p>{tvor} magicky přivolá 2k4 netopýřích či krysích hejn, pokud nesvítí slunce. Pod širým nebem může {tvor} místo toho přivolat 3k6 {tvor}. Přivolaní tvorové dorazí za 1k4 kol, jednají jako {tvor} spojenci a plní jeho slovní rozkazy. Zvířata vydrží 1 hodinu, dokud {tvor} nezemře, nebo dokud je neodvolá jako bonusovou akci.</p>"
    }
  },
  {
    "original": "Multiple Heads",
    "data": {
      "name": "Mnohohlavost",
      "data.description.value": "<p>{tvor} má pět hlav. Když má víc než jednu hlavu, má výhodu k záchranným hodům proti hluchotě, ochromení, slepotě, upadnutí do bezvědomí, vystrašení a zmámení.</p><p>Kdykoliv {tvor} utrpí zranění 25 či více v jednom tahu, jedna z jejích hlav umře. Umřou-li všechny, {tvor} zemře.</p><p>Na konci jejího tahu jí narostou dvě hlavy za každou z odumřelých hlav od posledního tahu, pokud od jejího posledního tahu neutrpěla ohnivé zranění. Za každou znovu narostlou hlavu tímto způsobem si {tvor} obnoví 10 životů.</p>"
    }
  },
  {
    "original": "Swarm",
    "data": {
      "name": "Roj",
      "data.description.value": "<p>Roj může obývat místo jiného tvora a naopak a může se pohnout skrz otvor, který je dostatečně velký pro Drobný {tvor}. Hejno si nemůže obnovit životy ani získat dočasné životy.</p>"
    }
  },
  {
    "original": "Telepathic Bond",
    "data": {
      "name": "Telepatické pouto",
      "data.description.value": "<p>{tvor} ignoruje omezený dosah své telepatie, když komunikuje s tvorem, kterého zmámil. Ti dva ani nemusí být ve stejné sféře existence.</p>"
    }
  },
  {
    "original": "Paralyzing Touch",
    "data": {
      "name": "Paralyzující dotyk",
      "data.description.value": "<p>{tvor} použije Paralyzující dotyk.</p>"
    }
  },
  {
    "original": "Standing Leap",
    "data": {
      "name": "Skok z místa",
      "data.description.value": "<p>{tvor} skok do dálky je až 2 sáhy a její skok do výšky je až 1 sáh, s rozběhem nebo bez.</p>"
    }
  },
  {
    "original": "Freedom of Movement",
    "data": {
      "name": "Volnost",
      "data.description.value": "<p>Dotkneš se tvora, který s tím souhlasí. Po dobu trvání na pohyb cíle nepůsobí těžký terén a kouzla a jiné magické účinky nemohou omezit rychlost cíle ani ho nemohou paralyzovat či zadržet.</p> <p>Cíl také může utratit 1 sáh pohybu k automatickému uniknutí z nemagického zadržení: například z okovů nebo z chvatu tvora. Mimo to, prostředí pod vodou nezpůsobuje pohybu a útokům cíle žádné postihy.</p>           "
    }
  },
  {
    "original": "Spellcasting",
    "data": {
      "name": "Sesílání kouzel",
      "data.description.value": "<p>{tvor} je sesilatelka kouzel 10. úrovně. Její sesílací vlastnost je Moudrost (SO záchrany kouzla je 17, útočná oprava kouzla je +9). {tvor} má připravena následující klerická kouzla:</p><p>Triky (libovolně): <em>divotvorství</em>, <em>posvátný plamen</em></p>"
    }
  },
  {
    "original": "Tree Stride",
    "data": {
      "name": "Chůze stromy",
      "data.description.value": "<p>Jednou za tah může {tvor} použít 2 sáhy pohybu k magickému vkročení do jednoho živého stromu ve svém dosahu a vyjít z druhého živého stromu do 12 sáhů od prvního stromu, přičemž se objeví na volném místě do 1 sáhu od druhého stromu. Oba stromy musí být Velké či větší.</p>"
    }
  },
  {
    "original": "Lightning Storm",
    "data": {
      "name": "Blesková bouře",
      "data.description.value": "<p>{tvor} použije Bleskovou bouři.</p>"
    }
  },
  {
    "original": "Two Heads",
    "data": {
      "name": "Dvě hlavy",
      "data.description.value": "<p>{tvor} má výhodu k ověřením Moudrosti (Vnímání) a záchranným hodům proti hluchotě, ochromení, slepotě, upadnutí do bezvědomí, vystrašení a zmámení.</p>"
    }
  },
  {
    "original": "Enslave",
    "data": {
      "name": "Zotročení (3/den)",
      "data.description.value": "<p>{tvor} zacílí jednoho tvora, kterého vidí do 6 sáhů od sebe. Cíl musí uspět v záchranném hodu na Moudrost se SO 14, jinak ho {tvor} magicky zmámí, dokud {tvor} nezemře, nebo dokud není {tvor} v jiné sféře existence než cíl. Zmámený cíl je pod {tvor} kontrolou, nemůže provádět reakce a {tvor} a cíl spolu mohou komunikovat telepaticky na jakoukoliv vzdálenost.</p><p>Kdykoliv zmámený cíl utrpí zranění, může zopakovat záchranný hod. Při úspěchu účinek skončí. Maximálně jednou za 24 hodin může cíl zopakovat záchranný hod také tehdy, když je aspoň 1 míli od {tvor}.</p>"
    }
  },
  {
    "original": "Iron Scent",
    "data": {
      "name": "Železný čich",
      "data.description.value": "<p>{tvor} umí čichem přesně určit polohu železného kovu do 6 sáhů od sebe.</p>"
    }
  },
  {
    "original": "Heal Self",
    "data": {
      "name": "Uzdrav se (stojí 3 akce)",
      "data.description.value": "<p>{tvor} si magicky obnoví 11 (2k8 + 2) životů.</p>"
    }
  },
  {
    "original": "Scare",
    "data": {
      "name": "Vyděšení (1/den)",
      "data.description.value": "<p>Jeden tvor dle {tvor} volby do 4 sáhů od něj musí uspět v záchranném hodu na Moudrost se SO 10, jinak se vystraší na 1 minutu. Cíl může zopakovat záchranný hod na konci každého svého tahu, s nevýhodou, pokud má {tvor} ve výhledu, a při úspěchu pro něj účinek skončí.</p>"
    }
  },
  {
    "original": "Misty Escape",
    "data": {
      "name": "Mlžný únik",
      "data.description.value": "<p>Když {tvor} klesnou životy na 0 mimo jeho místo odpočinku, přemění se v oblak mlhy (jako v rysu Tvaroměnec), místo aby upadl do bezvědomí, pokud není ve slunečním světle ani v tekoucí vodě. Nemůže-li se přeměnit, je zničen.</p><p>Zatímco má 0 životů v mlžné podobě, nemůže se navrátit do své {tvor} podoby a musí se dostat na své místo odpočinku do 2 hodin, jinak je zničen. Jakmile je na svém místě odpočinku, navrátí se do své {tvor} podoby. Potom je paralyzovaný, dokud si neobnoví aspoň 1 život. Když stráví na svém místě odpočinku 1 hodinu s 0 životy, obnoví si 1 život.</p>"
    }
  },
  {
    "original": "Innate Spellcasting",
    "data": {
      "name": "Přirozené sesílání kouzel",
      "data.description.value": "<p>{tvor} přirozená sesílací vlastnost je Charisma (SO záchrany kouzla je 12). Umí přirozeně sesílat následující kouzla, jež od ní nevyžadují surovinové složky:</p><p>Libovolně: <em>drobná iluze</em>, <em>tančící světla</em>, <em>zlomyslný výsměch</em></p>"
    }
  },
  {
    "original": "Horror Nimbus",
    "data": {
      "name": "Hrůzná svatozář (obnovení 5 – 6)",
      "data.description.value": "<p>{tvor} magicky zasvítí třpytivým {tvor} světlem. Každý tvor do 3 sáhů od nalfešného, který vidí světlo, musí uspět v záchranném hodu na Moudrost se SO 15, jinak se vystraší na 1 minutu. Tvor může zopakovat záchranný hod na konci každého svého tahu a při úspěchu pro něj účinek skončí. Je-li tvorův záchranný hod úspěšný nebo pro něj účinek skončí, bude vůči nalfešného Hrůzné svatozáři imunní 24 hodin.</p>"
    }
  },
  {
    "original": "Fling",
    "data": {
      "name": "Mrštění",
      "data.description.value": "<p>Jeden Velký či menší držený předmět nebo tvor uchvácený {tvor} je vržen až 12 sáhů náhodným směrem a dopadne na zem do lehu. Narazí-li odvržený cíl do pevného povrchu, utrpí drtivé zranění 3 (1k6) za každé 2 sáhy, co byl vržen. Je-li cíl odvržen na jiného tvora, tento tvor musí uspět v záchranném hodu na Obratnost se SO 18, jinak utrpí stejné zranění a je sražen k zemi.</p>"
    }
  },
  {
    "original": "Heated Weapons",
    "data": {
      "name": "Žhavé zbraně",
      "data.description.value": "<p>Když {tvor} zasáhne kovovou zbraní na blízko, způsobí dodatečné ohnivé zranění 3 (1k6) (započítáno v útoku).</p>"
    }
  },
  {
    "original": "Web",
    "data": {
      "name": "Pavučina (obnovení 5 – 6)",
      "data.description.value": "<p><em>Útok na dálku zbraní:</em> +4 k zásahu, dostřel 6/12 sáhů, jeden Velký či menší tvor. <em>Zásah:</em> Tvor je zadržený pavučinou. Jako akci si může zadržený tvor hodit na ověření Síly se SO 11 a při úspěchu z pavučiny unikne. Účinek skončí a pavučina se zničí. Pavučina má OČ 10, 5 životů, je zranitelná vůči ohnivému poškození a imunní vůči drtivému poškození.</p>"
    }
  },
  {
    "original": "Heart Sight",
    "data": {
      "name": "Srdeční zrak",
      "data.description.value": "<p>{tvor} se dotkne tvora a magicky pozná jeho aktuální citové rozpoložení. Pokud cíl neuspěje v záchranném hodu na Charisma se SO 10, {tvor} také pozná tvorovo přesvědčení. {tvor}}, nebešťané a nemrtví v záchranném hodu automaticky neuspějí.</p>"
    }
  },
  {
    "original": "Probing Telepathy",
    "data": {
      "name": "Sondovací telepatie",
      "data.description.value": "<p>Komunikuje-li tvor telepaticky s {tvor}}, {tvor} se dozví tvorovy největší tužby, pokud {tvor} tvora vidí.</p>"
    }
  },
  {
    "original": "Heated Body",
    "data": {
      "name": "Žhavé tělo",
      "data.description.value": "<p>Tvor, který se dotkne {tvor} nebo ho zasáhne útokem na blízko ze vzdálenosti do 1 sáhu, utrpí ohnivé zranění 7 (2k6).</p>"
    }
  },
  {
    "original": "Cold Breath",
    "data": {
      "name": "Ledový dech",
      "data.description.value": "<p>{tvor} vydechne ledový výšleh v kuželu 3 sáhy. Každý tvor v oblasti si musí hodit záchranný hod na Odolnost se SO 13. Když tvor neuspěje, utrpí chladné zranění 18 (4k8), nebo poloviční zranění při úspěšném záchranném hodu.</p>"
    }
  },
  {
    "original": "Variable Illumination",
    "data": {
      "name": "Proměnlivé svícení",
      "data.description.value": "<p>{tvor} osvítí jasným světlem okruh o poloměru 1 až 4 sáhy a slabým světlem další počet sáhů rovný zvolenému poloměru. {tvor} může měnit poloměr jako bonusovou akci.</p>"
    }
  },
  {
    "original": "Tail Spike Regrowth",
    "data": {
      "name": "Dorůstání ocasních trnů",
      "data.description.value": "<p>{tvor} má dvacet čtyři ocasních trnů. Použité trny jí dorostou, když si důkladně odpočine.</p>"
    }
  },
  {
    "original": "Spores",
    "data": {
      "name": "Spory (obnovení 6)",
      "data.description.value": "<p>{tvor} ze sebe vypustí oblak jedovatých spor o poloměru 3 sáhy. Spory se rozšiřují kolem rohů. Každý tvor, který začne svůj tah v této oblasti, musí uspět v záchranném hodu na Odolnost se SO 14, jinak se otráví. Když je cíl otrávený tímto způsobem, utrpí jedové zranění 5 (1k10) na začátku každého svého tahu. Cíl může zopakovat záchranný hod na konci každého svého tahu a při úspěchu pro něj účinek skončí. Vylití flakónku svěcené vody na cíl pro něj také ukončí tento účinek.</p>"
    }
  },
  {
    "original": "Draining Kiss",
    "data": {
      "name": "Vysávací polibek",
      "data.description.value": "<p>{tvor} políbí tvora, kterého zmámil, nebo tvora, který s tím souhlasí. Cíl si musí hodit záchranný hod na Odolnost proti této magii se SO 15. Když neuspěje, utrpí psychické zranění 32 (5k10 + 5), nebo poloviční zranění při úspěšném záchranném hodu. Maximum životů cíle se sníží o množství rovné utrpěnému zranění. Toto snížení trvá, dokud si cíl důkladně neodpočine. Sníží-li tento účinek maximum životů cíle na 0, cíl zemře.</p>"
    }
  },
  {
    "original": "Stone Camouflage",
    "data": {
      "name": "Kamenné maskování",
      "data.description.value": "<p>{tvor} má výhodu k ověřením Obratnosti (Nenápadnosti) při schovávání ve skalnatém terénu.</p>"
    }
  },
  {
    "original": "Animate Trees",
    "data": {
      "name": "Oživení stromů (1/den)",
      "data.description.value": "<p>{tvor} magicky oživí jeden či dva stromy, které vidí do 12 sáhů od sebe. Tyto stromy mají stejné statistiky jako {tvor}}, kromě hodnot Inteligence a Charismatu, jež mají 1, nemohou mluvit a jejich jediná možnost akce je Bouchnutí. Oživený strom jedná jako {tvor} spojenec. Strom vydrží oživený 1 den, či dokud nezemře; nebo dokud {tvor} nezemře či se nevzdálí dál než 24 sáhů o stromu; nebo dokud ho {tvor} pomocí bonusové akce nepromění zpět na neživý strom. Strom pak znovu zakoření, je-li to možné.</p>"
    }
  },
  {
    "original": "Enlarge",
    "data": {
      "name": "Zvětšení (obnovení po krátkém či důkladném odpočinku)",
      "data.description.value": "<p>Na 1 minutu {tvor} zvětší svou velikost, spolu se vším, co drží nebo má na sobě. Když je {tvor} zvětšený, je Velký, má dvojnásobné {tvor} zranění při útocích zbraní založených na Síle (započítáno v útocích) a má výhodu k ověřením Síly a záchranným hodům na Sílu. Nemá-li {tvor} dost prostoru, aby se stal Velký, zvětší se jen do maximální velikosti, co mu prostor umožňuje.</p>"
    }
  },
  {
    "original": "Darkness Aura",
    "data": {
      "name": "Aura tmy (1/den)",
      "data.description.value": "<p>{tvor} ze sebe vypustí magickou tmu o poloměru 3 sáhy, která se pohybuje spolu s ním a rozšiřuje se kolem rohů. Tma vydrží až 10 minut, nebo dokud neskončí {tvor} soustředění (jako by se soustředil na kouzlo). V této tmě nevidí ani tvor s viděním ve tmě a neosvětlí ji žádné přirozené světlo. Překrývá-li se tma s plochou světla vytvořeného kouzlem 2. či nižší úrovně, pak se kouzlo vytvářející světlo rozptýlí.</p>"
    }
  },
  {
    "original": "Snow Camouflage",
    "data": {
      "name": "Sněžné maskování",
      "data.description.value": "<p>{tvor} má výhodu k ověřením Obratnosti (Nenápadnosti) při schovávání v zasněženém terénu.</p>"
    }
  },
  {
    "original": "Grappler",
    "data": {
      "name": "Zápasník",
      "data.description.value": "<p>{tvor} má výhodu k hodům na útok proti jakémukoliv tvorovi, kterého uchvacuje.</p>"
    }
  },
  {
    "original": "Spell Storing",
    "data": {
      "name": "Ukládání kouzel",
      "data.description.value": "<p>Sesilatel kouzel, který má na sobě amulet štítového strážce, může do strážce uložit jedno kouzlo 4. či nižší úrovně. Udělá to tak, že sešle kouzlo na strážce. Kouzlo nemá žádný účinek, ale uloží se do strážce. Když to nositel přikáže, nebo když nastane situace, kterou sesilatel předurčil, strážce sešle uložené kouzlo s parametry původního sesilatele, ale bez složek kouzla. Když se kouzlo sešle, nebo se nové uloží, dříve uložené kouzlo zmizí.</p>"
    }
  },
  {
    "original": "Acid Spray",
    "data": {
      "name": "Kyselinová sprška (obnovení 6)",
      "data.description.value": "<p>{tvor} vyplivne kyselinu v dráze, která je 6 sáhů dlouhá a 1 sáh široká, pokud nikoho neuchvacuje. Každý tvor v dráze si musí hodit záchranný hod na Obratnost se SO 13. Když tvor neuspěje, utrpí kyselinové zranění 10 (3k6), nebo poloviční zranění při úspěšném záchranném hodu.</p>"
    }
  },
  {
    "original": "Parry",
    "data": {
      "name": "Parírování",
      "data.description.value": "<p>{tvor} si ke svému OČ přičte 2 proti jednomu útoku na blízko, který by ho zasáhl. Aby to {tvor} mohl udělat, musí vidět útočníka a držet zbraň na blízko.</p>"
    }
  },
  {
    "original": "Web Sense",
    "data": {
      "name": "Vnímání pavučiny",
      "data.description.value": "<p>Když se {tvor} dotýká pavučiny, zná přesné polohy všech tvorů, kteří se dotýkají stejné pavučiny.</p>"
    }
  },
  {
    "original": "False Appearance",
    "data": {
      "name": "Falešný vzhled",
      "data.description.value": "<p>Dokud {tvor} zůstává nehybný, je k nerozeznání od normální houby.</p>"
    }
  },
  {
    "original": "Horrifying Visage",
    "data": {
      "name": "Děsivý vzhled",
      "data.description.value": "<p>Každý tvor, který není nemrtvý a je do 12 sáhů od {tvor} a vidí ho, musí uspět v záchranném hodu na Moudrost se SO 13, jinak se vystraší na 1 minutu. Neuspěje-li cíl v záchraně o 5 či více, tak navíc zestárne o 1k4 × 10 let. Vystrašený cíl může zopakovat záchranný hod na konci každého svého tahu a při úspěchu pro něj stav vystrašený skončí. Pokud cíl uspěje v záchranném hodu, nebo pro něj účinek skončí, bude imunní vůči Děsivému vzhledu tohoto {tvor} 24 hodin. Účinek zestárnutí se dá navrátit kouzlem <em>mocné navrácení</em>, ale jen do 24 hodin od výskytu.</p>"
    }
  },
  {
    "original": "Divine Awareness",
    "data": {
      "name": "Božská ostražitost",
      "data.description.value": "<p>{tvor} pozná, když slyší lež.</p>"
    }
  },
  {
    "original": "Divine Eminence",
    "data": {
      "name": "Božský věhlas",
      "data.description.value": "<p>Jako bonusovou akci může {tvor} utratit pozici kouzel a tím způsobit, že jeho útoky zbraní na blízko magicky způsobí cíli při zásahu dodatečné zářivé zranění 10 (3k6). Tento užitek trvá do konce tahu. Pokud {tvor} utratí pozici kouzel 2. či vyšší úrovně, za každou další úroveň pozice nad 1. se zvýší zranění o 1k6.</p>"
    }
  },
  {
    "original": "Second Roar",
    "data": {
      "name": "Druhé zařvání",
      "data.description.value": "<p>Každý tvor, který nesupěje v záchranném hodu na Moudrost se SO 18, se vystraší a ohluchne na 1 minutu. Vystrašený tvor je paralyzovaný a může zopakovat záchranný hod na konci každého svého tahu a při úspěchu pro něj účinek skončí.</p>"
    }
  },
  {
    "original": "Reactive",
    "data": {
      "name": "Reaktivní",
      "data.description.value": "<p>{tvor} může provést jednu reakci v každém tahu boje.</p>"
    }
  },
  {
    "original": "Hold Breath",
    "data": {
      "name": "Zadržení dechu",
      "data.description.value": "<p>{tvor} umí zadržet dech na 1 hodinu.</p>"
    }
  },
  {
    "original": "Freeze",
    "data": {
      "name": "Zmrznutí",
      "data.description.value": "<p>Pokud {tvor} utrpí chladné zranění, částečně zmrzne; jeho rychlost se sníží o 4 sáhy do konce jeho příštího tahu.</p>"
    }
  },
  {
    "original": "Beast of Burden",
    "data": {
      "name": "Tažné zvíře",
      "data.description.value": "<p>{tvor} se považuje za Velké zvíře pro potřeby určování nosnosti.</p>"
    }
  },
  {
    "original": "Reactive Heads",
    "data": {
      "name": "Reaktivní hlavy",
      "data.description.value": "<p>Za každou hlavu, o kterou má {tvor} víc než jednu, má dodatečnou reakci, kterou ale může použít jen k příležitostným útokům.</p>"
    }
  },
  {
    "original": "Sure-Footed",
    "data": {
      "name": "Stabilita",
      "data.description.value": "<p>{tvor} má výhodu k záchranným hodům na Sílu a Obratnost proti účinkům, které by ji srazily k zemi.</p>"
    }
  },
  {
    "original": "Tentacles",
    "data": {
      "name": "Chapadla",
      "data.description.value": "<p><em>Útok na blízko zbraní:</em> +5 k zásahu, dosah 3 sáhy, jeden cíl. <em>Zásah:</em> Drtivé zranění 10 (2k6 + 3). Je-li cílem tvor, je uchvácený (SO úniku je 16). Dokud toto uchvácení neskončí, cíl je zadržený a {tvor} nemůže použít svá chapadla na jiný cíl.</p>"
    }
  },
  {
    "original": "Shadow Stealth",
    "data": {
      "name": "Schování se ve stínech",
      "data.description.value": "<p>Když je {tvor} v šeru či tmě, může provést akci Schování jako bonusovou akci.</p>"
    }
  },
  {
    "original": "Magic Weapons",
    "data": {
      "name": "Magické zbraně",
      "data.description.value": "<p>{tvor} útoky zbraní jsou magické.</p>"
    }
  },
  {
    "original": "Frightful Presence",
    "data": {
      "name": "Strašlivé vzezření",
      "data.description.value": "<p>Každý tvor dle {tvor} volby, který je do 24 sáhů od {tvor} a o kterém {tvor} ví, musí uspět v záchranném hodu na Moudrost se SO 17, jinak se vystraší na 1 minutu. Tvor může zopakovat záchranný hod na konci každého svého tahu, s nevýhodou, pokud má {tvor} ve výhledu, a při úspěchu pro něj účinek skončí. Je-li tvorův záchranný hod úspěšný nebo pro něj účinek skončí, bude vůči {tvor} Strašlivému vzezření imunní 24 hodin.</p>"
    }
  },
  {
    "original": "Death Burst",
    "data": {
      "name": "Smrtící výbuch",
      "data.description.value": "<p>Když {tvor} zemře, vybuchne prachem. Každý tvor do 1 sáhu od něj musí uspět v záchranném hodu na Odolnost se SO 10, jinak oslepne na 1 minutu. Slepý tvor může zopakovat záchranný hod na konci každého svého tahu a při úspěchu pro něj účinek skončí.</p>"
    }
  },
  {
    "original": "Death Glare",
    "data": {
      "name": "Smrtící pohled",
      "data.description.value": "<p>{tvor} zacílí jednoho vystrašeného tvora, kterého vidí do 6 sáhů od sebe. Pokud cíl {tvor} vidí, musí uspět v záchranném hodu na Moudrost se SO 11 proti této magii, jinak mu klesnou životy na 0.</p>"
    }
  },
  {
    "original": "Whirlwind",
    "data": {
      "name": "Vzdušný vír (obnovení 4 – 6)",
      "data.description.value": "<p>Každý tvor na {tvor} místě si musí hodit záchranný hod na Sílu se SO 13. Když cíl neuspěje, utrpí drtivé zranění 15 (3k8 + 2) a je odvržen až 4 sáhy od {tvor} náhodným směrem a sražen k zemi. Narazí-li odvržený cíl do objektu, například do stěny či podlahy, utrpí drtivé zranění 3 (1k6) za každé 2 sáhy, co byl vržen. Je-li cíl odvržen na jiného tvora, tento tvor musí uspět v záchranném hodu na Obratnost se SO 13, jinak utrpí stejné zranění a je sražen k zemi.</p><p>Je-li záchranný hod úspěšný, cíl utrpí poloviční drtivé zranění a není odvržen ani sražen k zemi.</p>"
    }
  },
  {
    "original": "Reaping Scythe",
    "data": {
      "name": "Kosa smrtky",
      "data.description.value": "<p>{tvor} máchne svou přízračnou kůsou skrz tvora do 1 sáhu od něj a způsobí mu sečné zranění 7 (1k8 + 3) plus nekrotické zranění 4 (1k8).</p>"
    }
  },
  {
    "original": "Turn Defiance",
    "data": {
      "name": "Vzdor vůči odvrácení",
      "data.description.value": "<p>{tvor} do 6 sáhů od něj mají výhodu k záchranným hodům proti účinkům, které odvrací nemrtvé.</p>"
    }
  },
  {
    "original": "Brute",
    "data": {
      "name": "Bijec",
      "data.description.value": "<p>Zbraň na blízko způsobí o jednu dodatečnou {tvor} větší zranění, když s ní {tvor} zasáhne (započítáno v útoku).</p>"
    }
  },
  {
    "original": "Intoxicating Touch",
    "data": {
      "name": "Opojný dotyk",
      "data.description.value": "<p><em>Útok na blízko kouzlem:</em> +5 k zásahu, dosah 1 sáh, jeden tvor. <em>Zásah:</em> Cíl je magicky proklet na 1 hodinu. Dokud kletba neskončí, cíl má nevýhodu k záchranným hodům na Moudrost a všechna ověření vlastností.</p>"
    }
  },
  {
    "original": "Consume Life",
    "data": {
      "name": "Konzumace života",
      "data.description.value": "<p>Jako bonusovou akci může {tvor} zacílit jednoho tvora, kterého vidí do 1 sáhu od sebe, který má 0 životů a je stále naživu. Cíl musí uspět v záchranném hodu na Odolnost se SO 10 proti této magii, jinak zemře. Pokud cíl zemře, {tvor} si obnoví 10 (3k6) životů.</p>"
    }
  },
  {
    "original": "Healing Touch",
    "data": {
      "name": "Léčivý dotyk (4/den)",
      "data.description.value": "<p>{tvor} se dotkne jiného tvora. Cíl si magicky obnoví 40 (8k8 + 4) životů a je zbaven jakékoli kletby, nemoci, jedu, slepoty či hluchoty.</p>"
    }
  },
  {
    "original": "Turn Resistance",
    "data": {
      "name": "Odolání vůči odvracení",
      "data.description.value": "<p>{tvor} má výhodu k záchranným hodům proti účinkům, které odvrací nemrtvé.</p>"
    }
  },
  {
    "original": "Etherealness",
    "data": {
      "name": "Éteričnost",
      "data.description.value": "<p>{tvor} magicky vstoupí z Materiální do Éterické sféry, nebo naopak.</p>"
    }
  },
  {
    "original": "Echolocation",
    "data": {
      "name": "Echolokace",
      "data.description.value": "<p>Když je {tvor} hluchý, nemůže používat své mimozrakové vnímání.</p>"
    }
  },
  {
    "original": "Hooves",
    "data": {
      "name": "Kopyta",
      "data.description.value": "<p><em>{tvor} zaútočí svými kopyty</p>"
    }
  },
  {
    "original": "Illusory Appearance",
    "data": {
      "name": "Iluzorní vzhled",
      "data.description.value": "<p>{tvor} zakryje sebe a vše, co drží či nese, magickou iluzí jiného tvora s její obecnou velikostí a humanoidním tvarem. Iluze skončí, ukončí-li ho {tvor} pomocí bonusové akce, nebo pokud zemře.</p><p>Změny vytvořené tímto účinkem neuspějí při fyzické kontrole. Například {tvor} může vypadat, že má hebkou kůži, ale když se jí někdo dotkne, může ucítit její drsné tělo. Jinak tvor musí provést akci k vizuálnímu prozkoumání iluze a uspět v ověření Inteligence (Pátrání) se SO 20, aby odhalil, že je {tvor} přestrojená.</p>"
    }
  },
  {
    "original": "Whelm",
    "data": {
      "name": "Zaplavení (obnovení 4 – 6)",
      "data.description.value": "<p>Každý tvor na {tvor} místě si musí hodit záchranný hod na Sílu se SO 15. Když cíl neuspěje, utrpí drtivé zranění 13 (2k8 + 4). Je-li Velký či menší, je také uchvácený (SO úniku je 14). Dokud toto uchvácení neskončí, cíl je zadržený a nemůže dýchat, ledaže by uměl dýchat pod vodou. Je-li záchranný hod úspěšný, cíl je odtlačen z {tvor} místa.</p><p>{tvor} může najednou uchvacovat buď jednoho Velkého tvora, nebo až dva Střední či menší tvory. Na začátku každého {tvor} tahu utrpí každý jím uchvacovaný cíl drtivé zranění 13 (2k8 + 4). Tvor do 1 sáhu od {tvor} z něj může vytáhnout tvora nebo předmět pomocí akce, když v ní uspěje v hodu na ověření Síly se SO 14.</p>"
    }
  },
  {
    "original": "Phantasms",
    "data": {
      "name": "Vidina (obnovení po krátkém či důkladném odpočinku)",
      "data.description.value": "<p>{tvor} magicky vytvoří tři iluzorní duplikáty sebe, pokud není v jasném světle. Duplikáty se pohybují spolu s ním a napodobují jeho akce a přesouvají svou polohu tak, aby bylo nemožné vysledovat, který {tvor} je ten pravý. Ocitne-li se {tvor} někdy v oblasti jasného světla, duplikáty zmizí.</p><p>Kdykoliv tvor zacílí {tvor} útokem či zraňujícím kouzlem, zatímco má {tvor} aspoň jeden duplikát, hodí si na náhodné určení, jestli zacílí {tvor}}, nebo jeden z duplikátů. Pokud tvor nevidí nebo se spoléhá na jiné smysly než zrak, tento magický účinek na něj nepůsobí.</p><p>Duplikát má {tvor} OČ a používá jeho záchranné hody. Zasáhne-li útok duplikát, nebo neuspěje-li duplikát v záchranném hodu proti účinku, který způsobuje zranění, duplikát zmizí.</p>"
    }
  },
  {
    "original": "Blinding Breath",
    "data": {
      "name": "Oslepující dech (obnovení 6)",
      "data.description.value": "<p>{tvor} vydechne oslepující prach v kuželu 3 sáhy. Každý tvor v této oblasti musí uspět v záchranném hodu na Obratnost se SO 10, jinak oslepne na 1 minutu. Tvor může zopakovat záchranný hod na konci každého svého tahu a při úspěchu pro něj účinek skončí.</p>"
    }
  },
  {
    "original": "Legendary Actions",
    "data": {
      "name": "Legendární akce",
      "data.description.value": "<p>{tvor} může provést 3 legendární akce, přičemž si vybírá z níže uvedených možností. Najednou je možné použít jen jednu legendární akci a pouze na konci tahu jiného tvora. {tvor} si obnoví utracené legendární akce na začátku svého tahu.</p>"
    }
  },
  {
    "original": "Bound",
    "data": {
      "name": "Pouto",
      "data.description.value": "<p>{tvor} je magicky svázán s amuletem. Pokud jsou strážce a amulet ve stejné sféře existence, nositel amuletu může telepaticky přivolat strážce, aby k němu došel, a strážce ví vzdálenost a směr k amuletu. Je-li strážce do 12 sáhů od nositele amuletu, polovina zranění, které nositel utrpí (zaokrouhleno nahoru), se přenese na strážce.</p>"
    }
  },
  {
    "original": "Sunlight Weakness",
    "data": {
      "name": "Slabost ve slunečním světle",
      "data.description.value": "<p>Když je {tvor} ve slunečním světle, má nevýhodu k hodům na útok, ověřením vlastností a záchranným hodům.</p>"
    }
  },
  {
    "original": "Unnerving Mask",
    "data": {
      "name": "Skličující maska",
      "data.description.value": "<p>Když tvor, kterého {tvor} vidí, začne svůj tah do 6 sáhů od {tvor}}, může {tvor} vytvořit iluzi, aby vypadal jako jedna z tvorových zesnulých milovaných osob nebo trpkých nepřátel. Pokud tvor {tvor} vidí, musí uspět v záchranném hodu na Moudrost se SO 14, jinak se vystraší do konce svého tahu.</p>"
    }
  },
  {
    "original": "Hellish Weapons",
    "data": {
      "name": "Pekelné zbraně",
      "data.description.value": "<p>{tvor} útoky zbraní jsou magické a při zásahu způsobí dodatečné jedové zranění 13 (3k8) (započítáno v útocích).</p>"
    }
  },
  {
    "original": "Aversion of Fire",
    "data": {
      "name": "Averze vůči ohni",
      "data.description.value": "<p>Utrpí-li {tvor} ohnivé zranění, má nevýhodu k hodům na útok a ověřením vlastnosti do konce svého příštího tahu.</p>"
    }
  },
  {
    "original": "Read Thoughts",
    "data": {
      "name": "Čtení myšlenek",
      "data.description.value": "<p>{tvor} magicky čte povrchové myšlenky jednoho tvora do 12 sáhů od sebe. Účinek pronikne skrz většinu překážek, ale neprojde 3 stopami dřeva či hlíny, 2 stopami kamene, 2 couly kovu, nebo tenkou vrstvou olova. Dokud je cíl v dosahu, {tvor} může pokračovat ve čtení jeho myšlenek, dokud se nepřeruší {tvor} soustředění (jako u soustředění se na kouzlo). Zatímco čte mysl cíle, má výhodu k ověřením Moudrosti (Vhledu) a Charismatu (Klamání, Přesvědčování a Zastrašování) proti cíli.</p>"
    }
  },
  {
    "original": "Petrifying Gaze",
    "data": {
      "name": "Zkameňující pohled",
      "data.description.value": "<p>Když tvor začne svůj tah do 6 sáhů od {tvor} a vidí {tvor} oči, {tvor} ho může donutit hodit si záchranný hod na Odolnost se SO 14, pokud {tvor} není neschopná a tvora vidí. Pokud tvor neuspěje o 5 či více, okamžitě zkamení. Jinak tvor, který jen neuspěje, začne kamenět a je zadržený. Zadržený tvor musí zopakovat záchranný hod na konci svého příštího tahu a při neúspěchu zkamení, nebo při úspěchu pro něj účinek skončí. Zkamenění trvá, dokud není osvobozen pomocí kouzla <em>mocné navrácení</em> nebo jiné magie.</p><p>Pokud tvor není překvapený, může odvrátit svůj zrak, aby se vyhnul záchrannému hodu na začátku svého tahu. Udělá-li to, nevidí {tvor} do začátku svého příštího tahu, kdy může opět odvracet svůj zrak. Podívá-li se mezitím na {tvor}}, musí si okamžitě hodit záchranný hod.</p><p>Uvidí-li {tvor} svůj odraz do 12 sáhů od sebe v jasném světle, ovlivní se, kvůli svému prokletí, svým vlastním pohledem.</p>"
    }
  },
  {
    "original": "Confer Fire Resistance",
    "data": {
      "name": "Udělení ohnivého odolání",
      "data.description.value": "<p>{tvor} může udělit odolání vůči ohnivému zranění komukoliv, kdo na ní jede.</p>"
    }
  },
  {
    "original": "Evasion",
    "data": {
      "name": "Vyváznutí",
      "data.description.value": "<p>Je-li {tvor} vystaven účinku, který mu umožňuje, aby pomocí záchranného hodu na Obratnost utrpěl jen poloviční zranění, tak místo toho neutrpí žádné zranění, když v záchraně uspěje, nebo utrpí jen poloviční zranění, když neuspěje.</p>"
    }
  },
  {
    "original": "Petrifying Breath",
    "data": {
      "name": "Zkameňující dech (obnovení 5 – 6)",
      "data.description.value": "<p>{tvor} vydechne zkameňující plyn v kuželu 6 sáhů. Každý tvor v této oblasti musí uspět v záchranném hodu na Odolnost se SO 13. Když cíl neuspěje, začne kamenět a je zadržený. Zadržený cíl musí záchranný hod zopakovat na konci svého příštího tahu. Při úspěchu účinek pro cíl skončí. Když cíl neuspěje, zkamení, dokud není osvobozen pomocí kouzla <em>mocné navrácení</em> nebo jiné magie.</p>"
    }
  },
  {
    "original": "Limited Telepathy",
    "data": {
      "name": "Omezená telepatie",
      "data.description.value": "<p>{tvor} může magicky telepaticky sdělovat jednoduché myšlenky, emoce a obrázky jakémukoli tvorovi do 20 sáhů od sebe, který rozumí jazyku.</p>"
    }
  },
  {
    "original": "Tentacle Disease",
    "data": {
      "name": "Chapadlová nemoc",
      "data.description.value": "<p>Po 1 minutě se kůže nakaženého tvora stane průsvitná a {tvor}}, tvor si nebude moci obnovit životy, dokud bude pod vodou, a nákaza se bude dát vyléčit jen kouzlem <em>uzdrav</em> nebo jiným nemoc léčícím kouzlem 6. či vyšší úrovně. Když je tvor mimo vodu, utrpí kyselinové zranění 6 (1k12) každých 10 minut, pokud se kůže něčím nenavlhčí před uplynutím 10 minut.</p>"
    }
  },
  {
    "original": "Trampling Charge",
    "data": {
      "name": "Zadupávací zteč",
      "data.description.value": "<p>Pohne-li se {tvor} aspoň 4 sáhy přímo k cíli a pak ho zasáhne kopyty ve stejném tahu, cíl musí uspět v záchranném hodu na Sílu se SO 14, jinak je sražen k zemi. Je-li cíl sražen k zemi, {tvor} na něj může znovu zaútočit kopyty jako bonusovou akci.</p>"
    }
  },
  {
    "original": "Shield",
    "data": {
      "name": "Štít",
      "data.description.value": "<p>Když tvor zaútočí na nositele strážcova amuletu, strážce poskytne bonus +2 nositelovu OČ, je-li do 1 sáhu od nositele.</p>"
    }
  },
  {
    "original": "Charm",
    "data": {
      "name": "Zmámení",
      "data.description.value": "<p>{tvor} zacílí jednoho humanoida, kterého vidí do 6 sáhů od sebe. Pokud cíl {tvor} vidí, musí uspět v záchranném hodu na Moudrost se SO 17 proti této magii, jinak ho {tvor} zmámí. Zmámený tvor považuje {tvor} za důvěryhodného přítele, na kterého je třeba brát ohled a chránit ho. I když cíl není pod {tvor} kontrolou, přijímá jeho požadavky a činy nejpříznivějším možným způsobem a je ochotným cílem pro {tvor} útok kousnutím.</p><p>Pokaždé, když {tvor} nebo jeho společníci nějak cíl poškodí, může cíl zopakovat záchranný hod a při úspěchu pro něj účinek skončí. Jinak účinek trvá 24 hodin, nebo dokud {tvor} není zničen, není v jiné sféře existence než cíl, či neukončí účinek jako bonusovou akci.</p>"
    }
  },
  {
    "original": "Earth Glide",
    "data": {
      "name": "Proplouvání zemí",
      "data.description.value": "<p>{tvor} se umí prohrabat skrz nemagickou, neopracovanou zeminu a kámen. Během prohrabávání nenarušuje materiál, skrz který se pohybuje.</p>"
    }
  },
  {
    "original": "Web Walker",
    "data": {
      "name": "Pavučinochodec",
      "data.description.value": "<p>{tvor} ignoruje pohybová omezení, jež způsobují pavučiny.</p>"
    }
  },
  {
    "original": "Repulsion Breath",
    "data": {
      "name": "Odpudivý dech",
      "data.description.value": "<p>{tvor} vydechne odpudivou energii v kuželu 6 sáhů. Každý tvor v této oblasti musí uspět v záchranném hodu na Sílu se SO 23. Když tvor neuspěje, je odtlačen 12 sáhů od {tvor}.</p>"
    }
  },
  {
    "original": "Two-Headed",
    "data": {
      "name": "Dvouhlavost",
      "data.description.value": "<p>{tvor} má výhodu k ověřením Moudrosti (Vnímání) a záchranným hodům proti hluchotě, ochromení, slepotě, upadnutí do bezvědomí, vystrašení a zmámení.</p>"
    }
  },
  {
    "original": "Mimicry",
    "data": {
      "name": "Napodobení",
      "data.description.value": "<p>{tvor} umí napodobit zvířecí zvuky a humanoidní hlasy. Tvor, který slyší napodobený zvuk, dokáže rozpoznat, že jde o napodobení, úspěšným ověřením Moudrosti (Vhledu) se SO 14.</p>"
    }
  },
  {
    "original": "Martial Advantage",
    "data": {
      "name": "Bojová výhoda",
      "data.description.value": "<p>Jednou za tah může {tvor} způsobit dodatečné zranění 7 (2k6) tvorovi, kterého zasáhne útokem zbraní, je-li do 1 sáhu od tvora aspoň jeden {tvor} spojenec, jenž není neschopný.</p>"
    }
  },
  {
    "original": "Acid Breath",
    "data": {
      "name": "Kyselinový dech",
      "data.description.value": "<p>{tvor} vydechne kyselinu v 18 sáhů dlouhé a 2 sáhy široké dráze. Každý tvor v dráze si musí hodit záchranný hod na Obratnost se SO 22. Když tvor neuspěje, utrpí kyselinové zranění 63 (14k8), nebo poloviční zranění při úspěšném záchranném hodu.</p>"
    }
  }
]